%!PS-Adobe-3.0 EPSF-3.0
%%Creator: cairo 1.12.16 (http://cairographics.org)
%%CreationDate: Wed Dec 11 11:36:15 2013
%%Pages: 1
%%DocumentData: Clean7Bit
%%LanguageLevel: 2
%%BoundingBox: 0 -1 997 173
%%EndComments
%%BeginProlog
save
50 dict begin
/q { gsave } bind def
/Q { grestore } bind def
/cm { 6 array astore concat } bind def
/w { setlinewidth } bind def
/J { setlinecap } bind def
/j { setlinejoin } bind def
/M { setmiterlimit } bind def
/d { setdash } bind def
/m { moveto } bind def
/l { lineto } bind def
/c { curveto } bind def
/h { closepath } bind def
/re { exch dup neg 3 1 roll 5 3 roll moveto 0 rlineto
      0 exch rlineto 0 rlineto closepath } bind def
/S { stroke } bind def
/f { fill } bind def
/f* { eofill } bind def
/n { newpath } bind def
/W { clip } bind def
/W* { eoclip } bind def
/BT { } bind def
/ET { } bind def
/pdfmark where { pop globaldict /?pdfmark /exec load put }
    { globaldict begin /?pdfmark /pop load def /pdfmark
    /cleartomark load def end } ifelse
/BDC { mark 3 1 roll /BDC pdfmark } bind def
/EMC { mark /EMC pdfmark } bind def
/cairo_store_point { /cairo_point_y exch def /cairo_point_x exch def } def
/Tj { show currentpoint cairo_store_point } bind def
/TJ {
  {
    dup
    type /stringtype eq
    { show } { -0.001 mul 0 cairo_font_matrix dtransform rmoveto } ifelse
  } forall
  currentpoint cairo_store_point
} bind def
/cairo_selectfont { cairo_font_matrix aload pop pop pop 0 0 6 array astore
    cairo_font exch selectfont cairo_point_x cairo_point_y moveto } bind def
/Tf { pop /cairo_font exch def /cairo_font_matrix where
      { pop cairo_selectfont } if } bind def
/Td { matrix translate cairo_font_matrix matrix concatmatrix dup
      /cairo_font_matrix exch def dup 4 get exch 5 get cairo_store_point
      /cairo_font where { pop cairo_selectfont } if } bind def
/Tm { 2 copy 8 2 roll 6 array astore /cairo_font_matrix exch def
      cairo_store_point /cairo_font where { pop cairo_selectfont } if } bind def
/g { setgray } bind def
/rg { setrgbcolor } bind def
/d1 { setcachedevice } bind def
%%EndProlog
%%Page: 1 1
%%BeginPageSetup
%%PageBoundingBox: 0 -1 997 173
%%EndPageSetup
q 0 -1 997 174 rectclip q
0 g
57.602 0.391 m 52.98 0.626 38.129 0.786 24.602 0.751 c 11.07 0.716 0 0.926
 0 1.223 c 0 1.911 10.09 2.157 33.602 2.036 c 108.703 1.649 148.797 1.626
 148.801 1.969 c 148.801 2.188 151.051 2.227 153.801 2.059 c 161.309 1.591
 262.395 1.508 262.398 1.969 c 262.398 2.188 264.648 2.223 267.398 2.048
 c 274.75 1.571 356.797 1.501 356.797 1.969 c 356.801 2.188 359.051 2.227
 361.801 2.059 c 369.395 1.583 470.395 1.508 470.398 1.977 c 470.398 2.204
 472.828 2.255 475.801 2.091 c 489.23 1.356 682.391 1.989 682.398 2.77 c
 682.398 2.989 684.648 3.044 687.398 2.887 c 695.473 2.43 795.996 2.329 
796 2.778 c 796 3.005 798.43 3.044 801.398 2.872 c 804.371 2.7 850.359 2.551
 903.602 2.544 c 956.84 2.536 998.238 2.262 995.602 1.934 c 989.859 1.227
 916.07 0.653 877.602 1.024 c 872.102 1.075 808.02 0.895 735.199 0.622 c
 662.379 0.348 593.441 0.137 582 0.153 c 570.559 0.169 552.559 0.173 542
 0.157 c 531.441 0.141 513.441 0.137 502 0.145 c 490.559 0.157 465 0.157
 445.199 0.149 c 425.398 0.141 399.84 0.141 388.398 0.153 c 376.961 0.161
 355.719 0.161 341.199 0.153 c 326.68 0.145 305.441 0.141 294 0.149 c 282.559
 0.157 257 0.157 237.199 0.149 c 217.398 0.141 191.84 0.141 180.398 0.149
 c 162.215 0.161 137.688 0.126 80.801 0.001 c 72.66 -0.015 62.219 0.161 
57.602 0.391 c h
95.199 8.352 m 95.199 8.786 94.363 9.348 93.344 9.606 c 92.32 9.86 90.859
 11.13 90.098 12.419 c 89.332 13.712 88.18 14.77 87.535 14.77 c 86.891 14.77
 86.02 15.669 85.602 16.77 c 85.184 17.868 84.562 18.805 84.219 18.848 c
 83.879 18.891 81.801 19.063 79.602 19.231 c 77.398 19.395 74.16 19.915 
72.398 20.383 c 65.109 22.321 60.492 22.645 58.066 21.395 c 54.758 19.684
 48.988 20.583 46.582 23.18 c 44.25 25.692 43.199 25.704 43.199 23.216 c
 43.199 20.841 40.227 17.348 37.922 17.012 c 35.805 16.704 35.168 18.27 
37.258 18.653 c 41.199 19.376 43.121 24.298 40.094 25.919 c 38.812 26.606
 38.523 26.38 38.125 24.391 c 37.488 21.212 33.719 17.266 30.781 16.704 
c 28.609 16.29 28.188 16.563 26.582 19.415 c 25.406 21.512 24.801 23.934
 24.801 26.555 c 24.801 29.391 24.34 31.055 23.18 32.391 c 21.746 34.048
 18.621 42.669 19.324 43.028 c 19.477 43.106 20.32 43.626 21.199 44.184 
c 29.91 49.716 33.586 47.454 37.551 34.133 c 38.844 29.798 39.742 28.114
 41.047 27.602 c 43.086 26.798 51.637 25.469 59.461 24.739 c 62.465 24.458
 68.043 23.364 71.859 22.309 c 80.285 19.977 80.266 19.981 79.199 21.969
 c 78.73 22.848 77.727 23.587 76.973 23.606 c 76.219 23.622 74.16 24.165
 72.398 24.805 c 70.641 25.446 63.98 26.52 57.602 27.196 c 44.375 28.594
 42.188 28.981 42.699 29.805 c 43.266 30.723 64.688 28.739 69.602 27.313
 c 72.02 26.61 75.129 25.696 76.508 25.282 c 79.016 24.536 l 79.406 29.051
 l 79.621 31.536 79.668 33.716 79.504 33.899 c 79.344 34.079 75.52 34.54
 71.004 34.919 c 66.492 35.301 60.797 35.966 58.352 36.391 c 55.906 36.821
 51.496 37.169 48.551 37.169 c 45.281 37.169 43.199 37.501 43.199 38.024
 c 43.199 38.993 51.566 38.727 66.398 37.29 c 79.887 35.985 81.785 35.602
 81.281 34.29 c 81.043 33.673 81.16 33.169 81.535 33.169 c 82.535 33.169
 83.34 38.298 82.754 40.923 c 81.551 46.317 82.949 45.673 65.711 48.766 
c 57.219 50.294 55.199 50.294 55.199 48.77 c 55.199 48.11 54.84 47.571 54.398
 47.571 c 53.961 47.571 53.602 48.219 53.602 49.016 c 53.602 50.258 52.383
 50.61 45 51.497 c 40.27 52.067 35.141 52.852 33.602 53.247 c 32.059 53.637
 29.652 53.962 28.246 53.966 c 26.844 53.969 25.473 54.329 25.199 54.77 
c 24.422 56.028 29.012 55.747 41.035 53.809 c 49.898 52.38 52.375 52.219
 53.625 53.001 c 55.641 54.258 56 54.223 56 52.77 c 56 51.911 56.875 51.571
 59.082 51.571 c 60.773 51.571 63.203 51.216 64.48 50.778 c 65.758 50.344
 69.141 49.626 72 49.188 c 74.859 48.747 78.191 48.161 79.398 47.883 c 81.488
 47.411 81.602 47.532 81.602 50.278 c 81.602 52.868 81.379 53.169 79.492
 53.169 c 78.332 53.169 76.082 53.501 74.492 53.903 c 72.902 54.305 65.301
 55.415 57.602 56.368 c 40.172 58.528 37.77 59.122 36.672 61.536 c 35.465
 64.176 39.285 70.997 43.762 74.196 c 46.668 76.274 48.203 76.708 55.145
 77.395 c 66.699 78.536 68.957 77.751 77.395 69.645 c 81.078 66.106 84.828
 62.02 85.727 60.567 c 87.633 57.481 87.219 54.337 84.797 53.571 c 83.625
 53.196 83.199 52.36 83.199 50.411 c 83.199 47.583 84.434 46.805 88.926 
46.782 c 91.59 46.766 100.355 40.907 103.359 37.133 c 105.223 34.79 105.762
 33.051 106.457 27.133 c 107.707 16.512 107.688 16.567 110.5 15.946 c 111.988
 15.622 113.211 15.739 113.523 16.243 c 114.156 17.266 132.969 17.391 133.594
 16.38 c 134.094 15.571 136.633 15.27 141.457 15.446 c 144.289 15.548 144.867
 15.825 144.637 16.969 c 144.418 18.075 143.707 18.313 141.246 18.091 c 
138.391 17.837 138.238 17.923 139.406 19.091 c 140.109 19.794 141.492 20.368
 142.477 20.368 c 143.461 20.368 144.043 20.594 143.77 20.868 c 143.496 
21.137 141.547 21.091 139.438 20.762 c 137.328 20.43 136.051 19.997 136.602
 19.798 c 137.148 19.598 137.602 19.106 137.602 18.704 c 137.602 17.38 133.602
 17.934 130.168 19.735 c 127.512 21.126 125.406 21.505 120.184 21.532 c 
114.691 21.563 113.801 21.739 114.938 22.571 c 116.781 23.915 123.844 23.837
 127.848 22.423 c 132.543 20.766 140.809 21.614 139.566 23.626 c 138.945
 24.63 134.398 24.579 134.398 23.571 c 134.398 23.13 134.016 22.77 133.547
 22.77 c 133.074 22.77 132.906 23.442 133.168 24.266 c 133.5 25.309 132.785
 26.626 130.832 28.579 c 128.07 31.341 127.969 31.368 125.012 30.313 c 119.938
 28.505 114.418 28.868 110.922 31.239 c 107.195 33.774 107.645 34.813 111.453
 32.462 c 115.895 29.716 125.316 30.325 127.371 33.489 c 127.715 34.02 130.879
 34.38 135.371 34.399 c 139.457 34.415 145.594 34.938 149.012 35.559 c 155.223
 36.692 l 150.801 40.466 l 153.801 39.981 l 156.445 39.555 156.801 39.688
 156.801 41.133 c 156.801 42.95 155.195 43.251 152.68 41.903 c 151.789 41.43
 150.836 41.27 150.555 41.548 c 149.668 42.434 152.293 43.544 155.305 43.559
 c 157.777 43.567 158.352 43.216 159.195 41.184 c 159.738 39.872 159.984
 38.282 159.742 37.653 c 159.395 36.751 160.355 36.45 164.25 36.239 c 170.844
 35.88 174.398 36.333 174.398 37.524 c 174.398 38.219 173.133 38.395 170
 38.137 c 165.602 37.77 l 165.605 40.469 l 165.617 44.548 162.48 50.575 
160.031 51.188 c 158.914 51.466 157.461 52.18 156.801 52.774 c 156.141 53.368
 152.898 54.622 149.602 55.555 c 143.508 57.286 135.18 57.809 107.199 58.223
 c 96.926 58.372 92.801 59.2 92.801 61.114 c 92.801 61.489 92.227 62.02 
91.527 62.286 c 89.422 63.094 94.289 57.719 97.066 56.169 c 98.445 55.399
 100.207 54.77 100.98 54.77 c 102.566 54.77 112.797 50.895 113.961 49.852
 c 114.379 49.477 116.148 49.169 117.891 49.169 c 120.191 49.169 122.727
 48.2 127.129 45.633 c 130.469 43.688 134.551 41.462 136.199 40.684 c 139.359
 39.2 140.055 37.669 137.934 36.856 c 134.652 35.594 116.27 37.091 115.219
 38.704 c 114.988 39.059 113.613 39.954 112.164 40.696 c 110.715 41.438 
108.555 43.454 107.363 45.176 c 104.77 48.926 101.316 50.77 96.879 50.77
 c 94.961 50.77 93.602 51.149 93.602 51.68 c 93.602 52.915 100.914 52.028
 104.18 50.399 c 106.961 49.012 112.457 48.637 110.398 49.977 c 109.738 
50.407 106.152 51.696 102.426 52.841 c 97.094 54.485 95.055 55.559 92.828
 57.915 c 82.914 68.387 80.004 71.309 78.359 72.434 c 77.344 73.13 76.867
 73.915 77.301 74.184 c 77.73 74.45 79.457 73.415 81.129 71.88 c 83.812 
69.423 89.684 64.774 94.66 61.169 c 95.902 60.27 98.738 59.954 105.957 59.907
 c 111.262 59.872 121.078 59.548 127.77 59.184 c 136.547 58.712 140.246 
58.778 141.035 59.434 c 141.863 60.122 142.504 60.059 143.664 59.18 c 144.508
 58.544 145.93 58.008 146.816 57.997 c 151.664 57.919 166.156 50.52 169.609
 46.36 c 171.402 44.2 169.789 44.137 167.914 46.294 c 166.922 47.438 165.762
 48.368 165.332 48.368 c 164.902 48.368 165.098 47.739 165.762 46.969 c 
167.367 45.114 168.945 40.368 167.957 40.368 c 167.543 40.368 167.199 40.044
 167.199 39.645 c 167.199 38.985 168.969 39.141 171.91 40.059 c 172.805 
40.337 172.758 40.688 171.656 41.907 c 170.887 42.758 170.625 43.614 171.059
 43.883 c 172.102 44.528 175.535 39.848 176.758 36.114 c 177.312 34.43 177.566
 31.911 177.324 30.512 c 176.199 23.946 175.457 20.633 174.926 19.77 c 174.164
 18.54 169.184 17.18 165.426 17.173 c 163.172 17.173 162.559 16.891 162.891
 16.024 c 163.168 15.301 162.199 14.133 160.266 12.856 c 157.645 11.13 156.758
 10.938 154.141 11.532 c 152.461 11.915 150.48 12.755 149.742 13.399 c 149.004
 14.044 147.68 14.442 146.801 14.286 c 143.109 13.63 114.652 13.426 113.016
 14.044 c 111.641 14.563 111.043 14.368 110.418 13.208 c 109.035 10.622 
107.164 9.169 105.211 9.169 c 104.176 9.169 103.152 8.719 102.926 8.169 
c 102.621 7.419 102.312 7.466 101.672 8.368 c 101.098 9.184 100.82 9.247
 100.812 8.571 c 100.805 7.962 99.699 7.571 98 7.571 c 96.461 7.571 95.199
 7.923 95.199 8.356 c h
100.938 11.294 m 101.742 12.02 102.398 13.137 102.398 13.77 c 102.398 14.403
 103.164 15.997 104.098 17.305 c 105.629 19.458 105.742 20.329 105.23 26.231
 c 104.605 33.489 103.09 36.751 98.848 39.985 c 95.512 42.532 93.039 42.466
 89.828 39.747 c 87.359 37.661 87.219 37.212 86.41 29.079 c 85.945 24.407
 85.82 19.907 86.129 19.079 c 86.805 17.266 92.707 11.176 94.398 10.544 
c 96.738 9.669 99.492 9.985 100.938 11.294 c h
91.199 16.86 m 87.797 20.551 l 88.18 25.868 l 88.855 35.341 92.348 38.962
 97.785 35.825 c 99.223 34.993 101.031 33.067 101.797 31.544 c 104.344 26.497
 103.223 17.469 99.695 14.587 c 96.93 12.329 94.871 12.88 91.199 16.86 c
 h
95.273 18.216 m 94.656 18.833 94.152 18.841 93.547 18.239 c 92.945 17.637
 93.121 16.962 94.148 15.934 c 95.535 14.548 95.613 14.548 95.875 15.911
 c 96.027 16.696 95.758 17.731 95.273 18.216 c h
100 17.575 m 100 18.13 99.043 19.212 97.875 19.977 c 95.883 21.282 95.785
 21.286 96.281 19.993 c 96.57 19.239 97.027 17.743 97.297 16.673 c 97.684
 15.122 98.012 14.915 98.891 15.645 c 99.5 16.153 100 17.02 100 17.575 c
 h
92.461 21.04 m 90.754 21.372 90.059 20.766 90.793 19.583 c 91.188 18.942
 91.695 18.985 92.598 19.731 c 93.727 20.665 93.711 20.798 92.461 21.04 
c h
101.602 21.169 m 101.602 22.059 101.066 22.77 100.398 22.77 c 99.184 22.77
 98.758 21.079 99.734 20.102 c 100.746 19.087 101.602 19.575 101.602 21.169
 c h
91.199 23.618 m 91.199 24.032 90.84 24.368 90.398 24.368 c 89.961 24.368
 89.602 23.809 89.602 23.122 c 89.602 22.434 89.961 22.098 90.398 22.368
 c 90.84 22.641 91.199 23.204 91.199 23.618 c h
96.852 22.798 m 98.727 23.801 98.836 25.419 97.145 27.114 c 95.668 28.587
 93.602 28.774 93.602 27.434 c 93.602 26.923 93.836 26.739 94.125 27.028
 c 94.855 27.758 96.801 26.02 96.801 24.641 c 96.801 23.762 96.449 23.7 
95.199 24.368 c 93.844 25.094 93.602 24.977 93.602 23.598 c 93.602 21.786
 94.535 21.559 96.852 22.798 c h
102.398 24.735 m 102.398 24.938 101.449 25.985 100.285 27.063 c 99.027 
28.231 97.969 30.27 97.676 32.098 c 97.281 34.536 96.789 35.223 95.297 35.438
 c 92.75 35.801 91.625 34.563 92.695 32.567 c 93.379 31.286 93.168 30.645
 91.57 29.141 c 89.363 27.067 89.008 25.434 90.766 25.434 c 91.406 25.434
 92.156 26.458 92.43 27.704 c 92.77 29.255 93.422 29.969 94.5 29.969 c 96.152
 29.969 100 26.637 100 25.204 c 100 24.747 100.539 24.368 101.199 24.368
 c 101.859 24.368 102.398 24.536 102.398 24.735 c h
100.445 30.848 m 99.738 32.477 99.25 32.985 99.23 32.118 c 99.195 30.497
 100.734 27.239 101.277 27.778 c 101.469 27.969 101.094 29.352 100.445 30.848
 c h
90.945 32.52 m 90.691 33.157 90.5 32.969 90.465 32.036 c 90.43 31.192 90.617
 30.719 90.883 30.985 c 91.148 31.251 91.176 31.942 90.945 32.52 c h
108.371 12.809 m 109.863 14.786 109.895 15.571 108.484 15.571 c 107.871
 15.571 107.125 16.2 106.824 16.969 c 106.344 18.196 106.148 18.122 105.238
 16.368 c 104.668 15.27 103.945 13.544 103.633 12.532 c 103.137 10.911 103.309
 10.727 105.129 10.973 c 106.262 11.126 107.719 11.95 108.371 12.809 c h
158.719 13.278 m 161.102 14.364 162.336 16.692 160.195 16.067 c 159.43 
15.844 157.062 15.415 154.941 15.114 c 151.168 14.583 150.793 13.712 154
 12.938 c 156.566 12.321 156.633 12.325 158.719 13.278 c h
118.199 15.321 m 117.43 15.52 116.172 15.52 115.398 15.321 c 114.629 15.118
 115.262 14.954 116.801 14.954 c 118.34 14.954 118.969 15.118 118.199 15.321
 c h
132.559 15.278 m 131.742 16.094 127.949 16.301 128.441 15.501 c 128.691
 15.098 129.832 14.77 130.98 14.77 c 132.129 14.77 132.84 14.997 132.559
 15.278 c h
149.602 15.923 m 149.602 16.118 149.238 16.497 148.801 16.77 c 148.359 
17.04 148 16.883 148 16.415 c 148 15.95 148.359 15.571 148.801 15.571 c 
149.238 15.571 149.602 15.727 149.602 15.923 c h
154.086 17.77 m 155.539 19.684 155.465 20.008 153.531 20.153 c 152.301 
20.247 151.992 19.942 152.359 18.989 c 152.633 18.278 152.391 17.403 151.828
 17.044 c 151.016 16.528 151.031 16.391 151.91 16.38 c 152.523 16.376 153.5
 17.001 154.086 17.77 c h
160 17.567 m 160 18.368 156.703 18.419 156.047 17.63 c 155.434 16.887 155.812
 16.735 157.621 17.001 c 158.93 17.192 160 17.45 160 17.567 c h
146.547 18.942 m 145.973 19.516 145.602 19.563 145.602 19.063 c 145.602
 18.606 145.84 17.997 146.133 17.704 c 146.426 17.411 146.852 17.356 147.078
 17.583 c 147.309 17.809 147.066 18.423 146.547 18.942 c h
34.535 20.591 m 37.168 23.997 37.43 29.7 35.262 36.368 c 34.004 40.239 
33.555 40.798 31.516 41.005 c 30.242 41.133 28.48 40.712 27.602 40.063 c
 26.152 39.001 26.023 38.11 26.23 30.731 c 26.512 20.774 27.77 17.548 31.059
 18.344 c 32.234 18.633 33.801 19.641 34.535 20.591 c h
28.895 21.673 m 27.387 22.727 27.203 23.633 27.211 29.813 c 27.219 33.919
 27.5 36.333 27.902 35.704 c 28.441 34.848 28.68 34.899 29.082 35.954 c 
29.371 36.7 29.992 37.02 30.52 36.696 c 31.105 36.333 31.23 36.473 30.855
 37.079 c 30.508 37.641 29.57 37.813 28.57 37.497 c 26.973 36.989 26.953
 37.04 28.234 38.317 c 30.367 40.45 32.332 39.188 33.969 34.641 c 36.301
 28.153 35.703 22.821 32.477 21.348 c 31.02 20.688 30.195 20.762 28.895 
21.673 c h
32.051 22.798 m 34.273 23.985 34 25.442 31.668 24.856 c 30.469 24.555 29.578
 24.755 29.328 25.372 c 29.109 25.919 28.898 25.618 28.863 24.704 c 28.762
 22.016 29.629 21.501 32.051 22.798 c h
31.371 30.657 m 31.051 31.508 30.797 31.454 30.215 30.407 c 29.801 29.673
 29.715 28.466 30.02 27.719 c 30.512 26.516 30.637 26.54 31.176 27.969 c
 31.508 28.848 31.594 30.059 31.371 30.657 c h
34 27.571 m 34.273 28.008 34.113 28.368 33.648 28.368 c 33.18 28.368 32.801
 28.008 32.801 27.571 c 32.801 27.13 32.957 26.77 33.152 26.77 c 33.348 
26.77 33.727 27.13 34 27.571 c h
32.801 33.923 m 32.801 34.337 32.441 34.899 32 35.169 c 31.559 35.442 31.199
 35.102 31.199 34.415 c 31.199 33.731 31.559 33.169 32 33.169 c 32.441 33.169
 32.801 33.508 32.801 33.923 c h
160.082 20.606 m 159.055 21.633 158.016 20.841 158.773 19.61 c 159.07 19.133
 159.676 18.969 160.125 19.247 c 160.672 19.583 160.656 20.032 160.082 20.606
 c h
162.934 19.969 m 162.934 20.63 162.633 21.169 162.266 21.169 c 161.898 
21.169 161.602 20.63 161.602 19.969 c 161.602 19.309 161.898 18.77 162.266
 18.77 c 162.633 18.77 162.934 19.309 162.934 19.969 c h
164.934 21.356 m 164.34 21.95 164.238 21.637 164.586 20.305 c 164.867 19.223
 165.23 18.86 165.43 19.462 c 165.621 20.036 165.398 20.891 164.934 21.356
 c h
173.957 21.196 m 176.117 23.321 175.18 23.821 171.297 22.61 c 168.98 21.887
 168 21.137 168 20.087 c 168 18.864 168.395 18.692 170.199 19.133 c 171.41
 19.426 173.102 20.356 173.957 21.196 c h
85.23 31.571 m 85.703 36.805 86.094 37.911 88.285 40.27 c 90.32 42.454 
90.457 42.794 89 42.04 c 86.398 40.7 85.164 38.38 83.219 31.169 c 82.27 
27.649 81.297 24.094 81.059 23.27 c 80.805 22.38 80.957 21.969 81.43 22.266
 c 81.871 22.536 82.5 22.133 82.828 21.364 c 83.602 19.551 84.484 23.294
 85.23 31.571 c h
57.602 22.77 m 58.5 23.352 58.105 23.551 56 23.567 c 54.461 23.579 51.762
 23.766 50 23.985 c 46.801 24.383 l 49.199 23.212 l 51.98 21.856 55.871 
21.653 57.602 22.77 c h
142.984 23.251 m 142.719 23.52 142.027 23.548 141.449 23.317 c 140.812 
23.059 141 22.872 141.934 22.833 c 142.777 22.798 143.25 22.985 142.984 
23.251 c h
146.184 23.251 m 145.918 23.52 145.227 23.548 144.648 23.317 c 144.012 
23.059 144.203 22.872 145.133 22.833 c 145.977 22.798 146.449 22.985 146.184
 23.251 c h
165.375 23.997 m 165.91 24.165 166.547 23.981 166.785 23.594 c 167.344 
22.688 171.395 23.837 173.773 25.579 c 175.59 26.907 175.582 26.911 172.801
 26.485 c 171.262 26.251 168.199 25.7 166 25.262 c 163.801 24.825 159.66
 24.419 156.801 24.36 c 153.941 24.305 150.879 23.934 150 23.536 c 148.48
 22.852 163.102 23.29 165.375 23.997 c h
141.473 27.208 m 143.328 31.286 142.77 32.368 138.801 32.368 c 136.703 
32.368 135.199 32.001 135.199 31.485 c 135.199 30.997 134.633 30.817 133.941
 31.083 c 132.184 31.755 135.914 27.258 138 26.188 c 140.371 24.969 140.465
 24.997 141.473 27.208 c h
157.602 25.989 m 162.777 26.512 162.148 26.583 153 26.485 c 147.172 26.423
 142.402 26.098 142.402 25.77 c 142.398 25.048 149.348 25.149 157.602 25.989
 c h
170.398 27.407 m 170.398 27.758 169.141 27.899 167.602 27.719 c 166.059
 27.54 164.801 27.255 164.801 27.083 c 164.801 26.911 166.059 26.77 167.602
 26.77 c 169.141 26.77 170.398 27.055 170.398 27.407 c h
166.398 29.235 m 168.66 29.633 166.723 29.716 161.199 29.454 c 146.785 
28.766 143.898 28.536 143.406 28.04 c 142.789 27.426 161.73 28.411 166.398
 29.235 c h
175.039 29.329 m 175.566 29.856 176 31.52 176 33.024 c 176 35.466 175.809
 35.704 174.199 35.274 c 173.211 35.008 171.82 34.786 171.109 34.782 c 170
 34.77 169.938 34.329 170.676 31.571 c 171.555 28.282 173.164 27.454 175.039
 29.329 c h
131.43 30.782 m 131.031 32.298 129.602 33.852 129.602 32.762 c 129.602 
32.083 131.184 29.169 131.555 29.169 c 131.715 29.169 131.66 29.895 131.43
 30.782 c h
81.348 31.719 m 81.09 32.356 80.902 32.169 80.863 31.235 c 80.828 30.391
 81.016 29.919 81.285 30.184 c 81.551 30.45 81.578 31.141 81.348 31.719 
c h
161.801 31.239 m 172.602 32.04 170.078 32.833 158.602 32.251 c 152.992 
31.962 147.391 31.692 146.152 31.649 c 144.73 31.598 144.105 31.243 144.449
 30.688 c 144.805 30.114 146.715 29.966 149.898 30.262 c 152.594 30.516 
157.949 30.958 161.801 31.239 c h
134.184 32.852 m 133.918 33.118 133.227 33.145 132.648 32.915 c 132.012
 32.661 132.203 32.469 133.133 32.434 c 133.977 32.399 134.449 32.587 134.184
 32.852 c h
159.199 33.962 m 166 34.532 l 159.516 34.653 l 151.254 34.801 143.199 33.969
 143.199 32.962 c 143.199 32.481 144.941 32.411 147.801 32.786 c 150.328
 33.114 155.461 33.645 159.199 33.962 c h
23.434 38.77 m 23.66 39.649 23.523 40.368 23.125 40.368 c 22.727 40.368
 22.398 39.649 22.398 38.77 c 22.398 37.887 22.539 37.169 22.707 37.169 
c 22.875 37.169 23.203 37.887 23.434 38.77 c h
135.621 39.219 m 134.312 39.903 132.102 41.165 130.711 42.024 c 129.32 
42.883 127.68 43.395 127.07 43.161 c 126.461 42.93 124.18 43.274 121.996
 43.93 c 117.191 45.376 115.305 44.348 118.289 41.911 c 119.328 41.063 120.676
 40.368 121.289 40.368 c 121.898 40.368 122.398 39.829 122.398 39.169 c 
122.398 38.184 123.797 37.969 130.199 37.973 c 137.738 37.977 137.922 38.02
 135.621 39.219 c h
158.398 38.77 m 158.398 39.208 158.242 39.571 158.047 39.571 c 157.852 
39.571 157.473 39.208 157.199 38.77 c 156.93 38.329 157.086 37.969 157.555
 37.969 c 158.02 37.969 158.398 38.329 158.398 38.77 c h
118.293 39.977 m 115.742 41.364 115.195 42.594 116.078 44.969 c 116.848
 47.032 118.297 47.161 122.77 45.571 c 127.051 44.044 127.207 44.563 123.027
 46.446 c 120.777 47.458 117.84 47.969 114.285 47.966 c 108.582 47.962 107.707
 47.653 108.402 45.883 c 109.062 44.2 116.977 38.833 118.801 38.833 c 120.164
 38.833 120.09 39.001 118.293 39.977 c h
90.922 43.594 m 94.285 43.63 91.684 44.837 86.906 45.458 c 83.164 45.946
 83.031 45.895 83.496 44.165 c 83.762 43.176 83.984 41.895 83.988 41.313
 c 83.996 40.579 84.699 40.758 86.324 41.915 c 87.602 42.825 89.672 43.579
 90.922 43.594 c h
22.754 41.895 m 23 42.294 25.023 43.091 27.25 43.661 c 30.633 44.528 31.02
 44.801 29.602 45.325 c 28.465 45.747 26.887 45.434 24.805 44.372 c 21.684
 42.782 20.023 41.169 21.504 41.169 c 21.945 41.169 22.508 41.497 22.754
 41.895 c h
83.934 55.059 m 83.75 55.219 82.824 55.755 81.879 56.247 c 80.512 56.958
 80.066 56.899 79.707 55.954 c 79.363 55.063 79.871 54.77 81.758 54.77 c
 83.137 54.77 84.117 54.899 83.934 55.059 c h
76.559 56.833 m 76.887 57.829 73.457 59.571 71.164 59.571 c 69.52 59.571
 69.234 58.95 70.211 57.489 c 71.477 55.598 76 55.13 76.559 56.833 c h
69 56.899 m 68.449 57.122 68 57.966 68 58.774 c 68 60.801 72.109 61.633
 75.004 60.188 c 77.223 59.079 l 77.211 62.048 l 77.207 63.68 76.973 64.872
 76.691 64.7 c 76.41 64.528 76 65.087 75.777 65.938 c 75.551 66.794 75.781
 67.653 76.285 67.848 c 77.523 68.325 71.492 73.716 68 75.255 c 61.871 77.958
 61.445 77.716 59.008 70.059 c 57.801 66.27 56.809 62.04 56.805 60.661 c
 56.801 58.227 56.941 58.126 61.398 57.364 c 66.387 56.508 70.605 56.251
 69 56.899 c h
85.602 57.208 m 85.602 58.833 83.316 62.395 80.746 64.77 c 78.922 66.458
 78.309 66.735 78.676 65.704 c 78.965 64.899 79.199 62.841 79.199 61.13 
c 79.199 58.86 79.488 58.13 80.273 58.43 c 80.863 58.657 81.805 58.286 82.371
 57.606 c 83.535 56.2 85.602 55.946 85.602 57.208 c h
55.094 60.969 m 54.988 63.969 l 54.488 61.169 l 54.215 59.63 53.77 58.731
 53.496 59.169 c 52.699 60.462 54.34 71.571 55.664 73.864 c 56.879 75.969
 l 56.414 73.571 l 56.16 72.251 55.773 69.548 55.559 67.571 c 55.191 64.184
 55.305 64.329 57.426 69.969 c 58.668 73.27 59.59 76.106 59.473 76.27 c 
59.355 76.438 56.371 76.126 52.836 75.575 c 45.133 74.376 41.777 72.169 
39.113 66.548 c 36.723 61.489 37.523 60.735 46.809 59.298 c 50.766 58.684
 54.27 58.137 54.602 58.079 c 54.93 58.016 55.152 59.321 55.094 60.969 c
 h
255.332 37.93 m 255.332 47.758 255.609 52.133 256.266 52.551 c 256.781 
52.876 258.352 53.149 259.762 53.157 c 261.172 53.165 263.152 53.493 264.164
 53.887 c 266.477 54.794 273.414 56.583 283.199 58.79 c 287.379 59.735 292.781
 60.993 295.199 61.583 c 297.621 62.176 301.941 63.192 304.801 63.844 c 
311.266 65.317 323.469 68.2 327.199 69.133 c 328.738 69.52 331.621 70.075
 333.602 70.372 c 336.926 70.868 348.867 73.962 359.07 76.973 c 364.473 
78.567 364.652 78.313 364.801 68.813 c 365.105 49.2 365.023 48.817 360.398
 48.637 c 357.34 48.516 334.082 43.083 332.109 42.028 c 331.289 41.591 329.402
 41.02 327.91 40.762 c 326.418 40.505 321.602 39.426 317.199 38.36 c 299.711
 34.13 291.492 32.219 289.199 31.844 c 287.879 31.63 285.258 30.938 283.371
 30.309 c 281.488 29.684 278.898 29.169 277.621 29.169 c 276.34 29.169 275.059
 28.786 274.766 28.313 c 274.477 27.844 273.777 27.637 273.215 27.852 c 
272.656 28.067 271.883 27.946 271.496 27.583 c 270.492 26.626 264.801 26.012
 264.801 26.856 c 264.801 27.251 265.543 27.571 266.453 27.571 c 267.363
 27.571 268.711 27.895 269.453 28.29 c 270.793 29.008 271.973 29.286 279.602
 30.692 c 281.801 31.098 284.5 31.774 285.602 32.192 c 287.566 32.938 294.688
 34.176 295.703 33.95 c 295.988 33.883 296.441 34.157 296.711 34.555 c 296.98
 34.954 300.078 35.876 303.602 36.606 c 307.121 37.337 312.879 38.536 316.398
 39.274 c 319.922 40.008 326.039 41.594 330 42.801 c 333.961 44.008 343.219
 46.356 350.578 48.024 c 363.957 51.051 l 363.535 63.087 l 363.289 70.149
 362.77 75.341 362.277 75.645 c 361.816 75.93 358.328 75.341 354.52 74.337
 c 350.715 73.337 344.898 71.801 341.602 70.93 c 338.301 70.059 332.898 
68.887 329.602 68.325 c 326.301 67.762 322.699 66.966 321.602 66.551 c 319.031
 65.583 294.746 59.977 284.59 58.008 c 280.293 57.173 275.074 55.962 272.988
 55.313 c 269.5 54.227 265.02 53.098 260 52.036 c 257.934 51.602 255.652
 47.981 256.535 46.548 c 256.809 46.11 256.961 41.536 256.883 36.387 c 256.766
 28.915 256.977 26.817 257.934 26.024 c 258.59 25.477 259.504 25.262 259.965
 25.548 c 260.426 25.833 260.801 25.723 260.801 25.305 c 260.801 24.887 
259.57 24.399 258.066 24.227 c 255.336 23.907 l h
262 25.969 m 261.727 26.411 262.066 26.77 262.754 26.77 c 263.438 26.77
 264 26.411 264 25.969 c 264 25.528 263.66 25.169 263.246 25.169 c 262.832
 25.169 262.273 25.528 262 25.969 c h
259.703 32.528 m 259.965 33.981 260.68 36.712 261.289 38.598 c 261.902 
40.481 262.398 43.212 262.398 44.665 c 262.398 46.114 262.621 47.524 262.891
 47.794 c 263.883 48.786 270.016 34.809 269.395 32.969 c 269.211 32.419 
268.566 33.321 267.969 34.969 c 266.848 38.055 266.441 38.282 263.457 37.481
 c 262.184 37.137 261.574 36.176 261.188 33.895 c 260.898 32.18 260.336 
30.579 259.941 30.333 c 259.539 30.083 259.434 31.048 259.703 32.528 c h
265.141 41.419 m 264.145 44.653 263.664 44.462 262.812 40.501 c 262.27 
37.954 262.324 37.872 263.961 38.747 c 265.242 39.434 265.539 40.11 265.141
 41.419 c h
649 33.786 m 646.66 34.044 645.168 35.571 647.258 35.571 c 648.094 35.571
 647.605 62.102 646.711 65.294 c 646.379 66.473 647.398 66.606 656.258 66.544
 c 666.172 66.477 l 666.684 57.622 l 666.965 52.755 667.195 45.251 667.195
 40.954 c 667.195 33.137 l 659.395 33.321 l 655.105 33.423 650.426 33.633
 648.996 33.786 c h
665.168 49.844 m 664.863 58.051 664.543 64.852 664.453 64.958 c 664.363
 65.059 660.766 64.915 656.457 64.63 c 648.625 64.118 l 649.113 55.243 l
 649.383 50.364 649.688 43.926 649.785 40.938 c 649.941 36.212 650.176 35.466
 651.582 35.169 c 655.012 34.454 656.344 34.38 660.957 34.645 c 665.719 
34.919 l h
652.547 36.891 m 652.246 37.192 652 42.958 652 49.704 c 652 61.969 l 657.266
 61.969 l 663.242 61.969 664.215 60.372 658.5 59.946 c 656.605 59.805 654.949
 59.571 654.824 59.43 c 654.695 59.286 654.441 57.008 654.258 54.364 c 653.926
 49.559 l 657.465 49.419 l 662.781 49.216 663.754 47.571 658.559 47.571 
c 654.398 47.571 l 654.387 42.969 l 654.375 38.411 653.598 35.841 652.547
 36.891 c h
673.801 33.79 m 671.461 34.044 669.969 35.571 672.059 35.571 c 672.91 35.571
 672.398 62.145 671.484 65.372 c 671.125 66.645 671.699 66.747 677.746 66.446
 c 681.406 66.262 686.289 66.083 688.602 66.044 c 692.801 65.969 l 692.801
 50.055 l 692.801 36.13 692.637 34.079 691.504 33.645 c 690.223 33.153 678.816
 33.247 673.801 33.79 c h
691.199 50.153 m 691.199 65.399 l 686.281 64.883 l 683.578 64.602 679.617
 64.368 677.48 64.368 c 673.594 64.368 l 674.109 50.169 l 674.391 42.36 
674.75 35.825 674.902 35.645 c 675.543 34.903 681.238 34.387 686.047 34.637
 c 691.199 34.907 l h
683.926 35.969 m 683.656 37.122 683.52 40.469 683.348 49.798 c 683.207 
57.665 683.133 57.989 681.652 57.196 c 679.695 56.149 678.398 56.137 678.398
 57.169 c 678.398 57.61 678.973 57.969 679.672 57.969 c 680.371 57.969 681.602
 58.778 682.402 59.77 c 683.207 60.758 684.031 61.387 684.242 61.169 c 684.938
 60.434 685.395 38.395 684.75 36.77 c 684.398 35.887 684.027 35.528 683.926
 35.969 c h
700.199 33.79 m 697.859 34.044 696.367 35.571 698.461 35.571 c 699.309 
35.571 698.797 62.145 697.887 65.372 c 697.527 66.645 698.098 66.747 704.145
 66.446 c 707.805 66.262 712.691 66.083 715 66.044 c 719.199 65.969 l 719.199
 50.055 l 719.199 36.13 719.039 34.079 717.906 33.645 c 716.625 33.153 705.215
 33.247 700.199 33.79 c h
717.602 50.153 m 717.602 65.399 l 712.684 64.883 l 709.977 64.602 706.016
 64.368 703.879 64.368 c 699.996 64.368 l 700.508 50.169 l 700.793 42.36
 701.148 35.825 701.301 35.645 c 701.945 34.903 707.641 34.387 712.449 34.637
 c 717.602 34.907 l h
704 37.192 m 704 37.989 707.133 44.231 710.406 49.958 c 712.191 53.083 
712.492 57.157 711.039 58.61 c 709.238 60.411 705.941 59.751 704.824 57.368
 c 704.203 56.051 703.641 55.579 703.422 56.196 c 703.215 56.758 703.613
 58.083 704.305 59.133 c 707.371 63.817 713.004 61.684 713.445 55.673 c 
713.645 53.02 713.129 51.391 710.941 47.751 c 709.43 45.231 707.578 41.966
 706.836 40.493 c 705.477 37.813 l 710.07 38.091 l 713.242 38.282 714.766
 38.059 715 37.368 c 715.246 36.633 713.844 36.368 709.668 36.368 c 706.316
 36.368 704 36.708 704 37.192 c h
725 33.786 m 722.66 34.044 721.168 35.571 723.258 35.571 c 724.094 35.571
 723.605 62.102 722.711 65.294 c 722.379 66.473 723.398 66.606 732.258 66.544
 c 742.172 66.477 l 742.684 57.622 l 742.965 52.755 743.195 45.251 743.195
 40.954 c 743.195 33.137 l 735.395 33.321 l 731.105 33.423 726.426 33.633
 724.996 33.786 c h
741.168 49.844 m 740.863 58.051 740.543 64.852 740.453 64.958 c 740.363
 65.059 736.805 64.915 732.547 64.637 c 724.805 64.13 l 725.312 50.048 l
 725.594 42.305 725.949 35.825 726.102 35.645 c 726.734 34.911 732.414 34.387
 736.914 34.645 c 741.719 34.919 l h
734.328 36.77 m 734.059 37.923 733.918 41.27 733.75 50.598 c 733.605 58.462
 733.531 58.79 732.051 57.997 c 730.098 56.95 728.801 56.938 728.801 57.969
 c 728.801 58.411 729.371 58.77 730.07 58.77 c 730.77 58.77 732 59.579 732.805
 60.571 c 733.605 61.559 734.434 62.188 734.641 61.969 c 735.336 61.235 
735.797 39.192 735.148 37.571 c 734.801 36.688 734.43 36.329 734.328 36.77
 c h
749.801 33.79 m 747.461 34.044 745.969 35.571 748.059 35.571 c 748.91 35.571
 748.398 62.145 747.484 65.372 c 747.125 66.645 747.699 66.747 753.746 66.446
 c 757.406 66.262 762.289 66.083 764.602 66.044 c 768.801 65.969 l 768.801
 50.055 l 768.801 36.13 768.637 34.079 767.504 33.645 c 766.223 33.153 754.816
 33.247 749.801 33.79 c h
767.199 50.153 m 767.199 65.399 l 762.281 64.883 l 759.578 64.602 755.617
 64.368 753.48 64.368 c 749.594 64.368 l 750.109 50.169 l 750.391 42.36 
750.75 35.825 750.902 35.645 c 751.543 34.903 757.238 34.387 762.047 34.637
 c 767.199 34.907 l h
753.602 37.192 m 753.602 37.989 756.734 44.231 760.008 49.958 c 761.793
 53.083 762.09 57.157 760.641 58.61 c 758.84 60.411 755.543 59.751 754.422
 57.368 c 753.805 56.051 753.242 55.579 753.02 56.196 c 752.816 56.758 753.215
 58.083 753.902 59.133 c 756.973 63.817 762.602 61.684 763.047 55.673 c 
763.242 53.02 762.727 51.391 760.543 47.751 c 759.027 45.231 757.18 41.966
 756.434 40.493 c 755.078 37.813 l 759.672 38.091 l 762.84 38.282 764.367
 38.059 764.598 37.368 c 764.844 36.633 763.445 36.368 759.266 36.368 c 
755.918 36.368 753.602 36.708 753.602 37.192 c h
774.602 33.786 m 772.262 34.044 770.77 35.571 772.859 35.571 c 773.695 
35.571 773.203 62.102 772.312 65.294 c 771.98 66.473 773 66.606 781.855 
66.544 c 791.773 66.477 l 792.281 57.622 l 792.562 52.755 792.793 45.251
 792.797 40.954 c 792.797 33.137 l 784.996 33.321 l 780.707 33.423 776.027
 33.633 774.598 33.786 c h
790.77 49.844 m 790.465 58.051 790.145 64.852 790.055 64.958 c 789.965 
65.059 786.406 64.915 782.148 64.637 c 774.406 64.13 l 774.914 50.048 l 
775.191 42.305 775.547 35.825 775.703 35.645 c 776.336 34.911 782.012 34.387
 786.516 34.645 c 791.32 34.919 l h
778.398 37.837 m 778.398 38.2 780.105 38.833 782.188 39.235 c 785.293 39.837
 786.109 40.364 786.746 42.18 c 787.848 45.341 785.934 47.012 781.105 47.102
 c 776.633 47.18 775.02 49.169 779.426 49.169 c 782.898 49.169 786.398 51.809
 786.398 54.426 c 786.398 57.676 783.75 59.571 779.199 59.571 c 774.953 
59.571 773.848 60.657 777.23 61.505 c 780.125 62.231 785.328 60.63 786.77
 58.567 c 788.348 56.317 788.34 53.208 786.75 50.938 c 785.594 49.29 785.625
 48.993 787.148 47.051 c 788.055 45.899 788.801 44.477 788.801 43.899 c 
788.801 41.782 786.977 38.923 785.074 38.059 c 782.793 37.016 778.398 36.872
 778.398 37.837 c h
273.398 34.43 m 273.07 34.762 272.801 38.52 272.801 42.774 c 272.801 50.516
 l 275.895 51.442 l 279.578 52.548 281.863 52.641 281.258 51.661 c 281.016
 51.274 279.195 50.712 277.211 50.411 c 273.793 49.899 273.602 49.735 273.613
 47.321 c 273.629 43.485 274.504 42.544 277.117 43.54 c 278.32 43.997 279.91
 44.356 280.652 44.341 c 282.684 44.298 278.418 42.032 276.242 41.997 c 
274.695 41.973 274.453 41.473 274.242 37.895 c 274.109 35.657 273.73 34.094
 273.398 34.43 c h
625 34.591 m 622.66 34.841 621.168 36.368 623.258 36.368 c 624.109 36.368
 623.598 62.946 622.688 66.173 c 622.328 67.446 622.898 67.544 628.945 67.243
 c 632.605 67.063 637.488 66.883 639.801 66.841 c 644 66.77 l 644 50.856
 l 644 36.926 643.84 34.88 642.703 34.442 c 641.422 33.95 630.016 34.044
 625 34.591 c h
642.398 50.794 m 642.398 66.02 l 633.801 65.485 l 629.07 65.192 625.117
 64.887 625.016 64.809 c 624.914 64.727 625.059 58.313 625.34 50.551 c 625.848
 36.442 l 630.324 36.157 l 632.785 36.001 636.512 35.805 638.602 35.719 
c 642.398 35.571 l h
639.746 36.887 m 639.445 37.188 639.199 38.341 639.199 39.446 c 639.199
 42.575 637.41 46.762 636.039 46.837 c 635.359 46.872 633.949 46.997 632.906
 47.11 c 631.43 47.27 630.77 46.731 629.906 44.669 c 629.297 43.212 628.801
 41.11 628.801 39.997 c 628.801 38.88 628.461 37.969 628.047 37.969 c 626.484
 37.969 626.504 39.466 628.117 43.653 c 629.035 46.028 630.289 49.95 630.906
 52.368 c 633.137 61.11 633.676 62.77 634.266 62.77 c 635.637 62.77 641.977
 38.071 640.891 36.958 c 640.562 36.618 640.047 36.591 639.746 36.887 c 
h
635 48.872 m 637.012 49.411 637.184 50.555 635.93 55.067 c 634.922 58.696
 634.16 58.176 632.91 53.016 c 631.637 47.755 631.539 47.946 635 48.872 
c h
291.07 35.969 m 290.797 36.411 290.875 38.571 291.242 40.77 c 291.605 42.969
 291.926 46.11 291.953 47.751 c 292 50.673 291.949 50.719 289.398 50.305
 c 286.801 49.88 l 289.043 51.173 l 290.277 51.883 291.605 53.255 291.992
 54.219 c 292.465 55.395 292.684 53.341 292.656 47.969 c 292.609 39.696 
291.934 34.575 291.07 35.969 c h
448.602 36.204 m 442.398 36.438 l 442.398 68.173 l 449.801 68.571 l 453.871
 68.786 464.488 68.923 473.398 68.868 c 482.309 68.813 489.602 69.04 489.602
 69.368 c 489.602 70.372 491.84 70.04 492.27 68.969 c 492.594 68.169 492.688
 68.169 492.738 68.969 c 492.812 70.169 500 70.383 500 69.184 c 500 68.676
 509.918 68.532 527.879 68.774 c 555.758 69.145 l 556.273 60.157 l 556.559
 55.216 556.793 48.2 556.797 44.571 c 556.797 40.704 557.133 37.969 557.602
 37.969 c 558.039 37.969 558.398 37.61 558.398 37.169 c 558.398 36.649 547.355
 36.329 527 36.258 c 509.73 36.2 486.422 36.11 475.199 36.059 c 463.98 36.008
 452.012 36.075 448.602 36.204 c h
551.496 37.997 m 555.391 37.969 l 554.918 47.368 l 554.656 52.54 554.434
 59.13 554.422 62.012 c 554.398 67.258 l 506.199 67.141 l 479.691 67.079
 454.852 66.969 451 66.899 c 444 66.77 l 444 38.044 l 449 37.782 l 451.75
 37.637 475.059 37.633 500.801 37.774 c 526.539 37.911 549.355 38.012 551.496
 37.997 c h
458.945 38.489 m 458.645 38.79 458.398 39.942 458.398 41.048 c 458.398 
44.176 456.609 48.364 455.238 48.434 c 454.559 48.473 453.148 48.594 452.105
 48.708 c 450.629 48.872 449.969 48.333 449.105 46.266 c 448.496 44.813 
448 42.708 448 41.594 c 448 40.481 447.66 39.571 447.246 39.571 c 445.684
 39.571 445.703 41.067 447.316 45.251 c 448.234 47.626 449.488 51.548 450.105
 53.969 c 452.34 62.708 452.875 64.368 453.465 64.368 c 454.84 64.368 461.176
 39.673 460.09 38.555 c 459.762 38.219 459.246 38.188 458.945 38.489 c h
454.199 50.473 m 456.211 51.012 456.383 52.153 455.133 56.665 c 454.125
 60.298 453.359 59.778 452.109 54.614 c 450.836 49.352 450.738 49.548 454.199
 50.473 c h
462.945 39.29 m 462.645 39.591 462.398 45.356 462.398 52.102 c 462.398 
64.368 l 467.668 64.368 l 473.641 64.368 474.613 62.774 468.898 62.348 c
 467.004 62.204 465.352 61.973 465.223 61.829 c 465.098 61.688 464.844 59.407
 464.66 56.762 c 464.324 51.958 l 467.867 51.821 l 473.18 51.614 474.152
 49.969 468.961 49.969 c 464.801 49.969 l 464.789 45.368 l 464.777 40.809
 463.996 38.239 462.945 39.29 c h
486.328 39.969 m 486.059 41.122 485.918 44.469 485.75 53.798 c 485.605 
61.665 485.531 61.989 484.051 61.196 c 482.098 60.149 480.801 60.137 480.801
 61.169 c 480.801 61.61 481.371 61.969 482.07 61.969 c 482.77 61.969 484
 62.778 484.805 63.77 c 485.605 64.758 486.434 65.387 486.641 65.169 c 487.336
 64.434 487.797 42.395 487.148 40.77 c 486.801 39.887 486.43 39.528 486.328
 39.969 c h
492 41.192 m 492 41.989 495.133 48.231 498.406 53.958 c 500.191 57.083 
500.492 61.157 499.039 62.61 c 497.238 64.411 493.941 63.751 492.824 61.368
 c 492.203 60.051 491.641 59.579 491.418 60.196 c 491.215 60.758 491.613
 62.083 492.305 63.133 c 495.371 67.817 501.004 65.684 501.445 59.673 c 
501.645 57.02 501.129 55.391 498.941 51.751 c 497.43 49.231 495.578 45.966
 494.836 44.493 c 493.477 41.813 l 498.07 42.091 l 501.242 42.282 502.766
 42.059 503 41.368 c 503.246 40.633 501.844 40.368 497.668 40.368 c 494.316
 40.368 492 40.708 492 41.192 c h
537.602 41.036 m 537.602 41.403 539.305 42.032 541.387 42.434 c 544.492
 43.036 545.312 43.567 545.945 45.383 c 547.047 48.54 545.133 50.212 540.309
 50.301 c 535.832 50.383 534.219 52.368 538.625 52.368 c 542.098 52.368 
545.602 55.008 545.602 57.626 c 545.602 60.876 542.949 62.77 538.398 62.77
 c 534.152 62.77 533.047 63.856 536.43 64.704 c 539.324 65.43 544.527 63.829
 545.973 61.77 c 547.547 59.516 547.539 56.407 545.949 54.137 c 544.793 
52.489 544.824 52.192 546.348 50.255 c 547.258 49.098 548 47.68 548 47.098
 c 548 44.985 546.176 42.126 544.273 41.258 c 541.992 40.219 537.602 40.071
 537.602 41.036 c h
517.199 41.969 m 516.891 42.469 516.738 45.825 516.863 49.423 c 516.988
 53.024 517.023 57.184 516.945 58.669 c 516.809 61.223 516.668 61.344 514.398
 60.887 c 513.047 60.618 512 60.751 512 61.188 c 512 61.618 512.539 61.969
 513.199 61.969 c 513.859 61.969 515.148 62.719 516.066 63.637 c 516.984
 64.551 517.93 65.106 518.168 64.868 c 518.695 64.341 518.664 41.966 518.133
 41.438 c 517.93 41.231 517.508 41.469 517.199 41.969 c h
523.199 41.841 m 523.199 42.208 524.609 44.477 526.336 46.887 c 529.758
 51.665 530.871 55.61 530.043 60.016 c 529.57 62.536 529.258 62.837 527.355
 62.618 c 525.832 62.442 524.848 61.614 524 59.786 c 522.629 56.837 521.602
 56.415 521.602 58.798 c 521.602 63.348 527.387 66.696 530.453 63.923 c 
531.676 62.813 532 61.446 532 57.38 c 532 52.958 531.613 51.579 529.227 
47.505 c 526.449 42.77 l 530.824 42.77 l 533.23 42.77 535.199 42.411 535.199
 41.969 c 535.199 41.508 532.668 41.169 529.199 41.169 c 525.898 41.169 
523.199 41.469 523.199 41.841 c h
962.398 37.149 m 962.398 38.012 968.484 41.169 970.148 41.169 c 970.812
 41.169 971.199 42.184 971.199 43.923 c 971.199 47.231 968.918 49.169 965.023
 49.169 c 963.578 49.169 962.398 49.528 962.398 49.969 c 962.398 50.411 
963.004 50.77 963.742 50.77 c 964.48 50.77 966.223 51.18 967.613 51.684 
c 969.992 52.544 970.109 52.774 969.605 55.544 c 968.809 59.891 968.273 
60.368 964.191 60.368 c 960.078 60.368 960.301 61.591 964.57 62.442 c 968.133
 63.157 971.199 60.063 971.199 55.766 c 971.199 54.075 970.789 52.278 970.289
 51.778 c 969.605 51.094 969.906 50.235 971.488 48.356 c 973.855 45.54 973.914
 45.294 972.82 42.423 c 972.324 41.122 970.863 39.903 968.82 39.083 c 967.051
 38.376 965.602 37.473 965.602 37.083 c 965.602 36.692 964.879 36.368 964
 36.368 c 963.121 36.368 962.398 36.719 962.398 37.149 c h
940.719 38.122 m 940.465 38.919 940.031 44.223 939.625 51.571 c 939.219
 58.864 939.305 59.758 940.262 58.368 c 941.578 56.466 942.691 39.044 941.543
 38.333 c 941.133 38.083 940.766 37.985 940.719 38.122 c h
870.406 42.344 m 869.316 46.239 867.812 47.208 864.121 46.395 c 862.492
 46.04 861.496 45.036 860.477 42.727 c 859.707 40.981 858.766 39.743 858.383
 39.981 c 858.004 40.216 858.566 42.29 859.637 44.587 c 860.707 46.887 861.59
 49.341 861.594 50.036 c 861.602 50.731 861.871 51.567 862.199 51.895 c 
862.531 52.219 863.34 54.141 864 56.169 c 864.66 58.196 865.605 59.985 866.105
 60.145 c 866.645 60.321 867.582 58.087 868.43 54.606 c 869.211 51.395 870.512
 46.821 871.324 44.442 c 872.988 39.571 873.098 38.77 872.105 38.77 c 871.723
 38.77 870.957 40.38 870.406 42.344 c h
867.605 50.969 m 866.418 56.868 866.262 57.008 864.734 53.571 c 862.723
 49.024 862.84 48.368 865.664 48.368 c 868.016 48.368 868.105 48.485 867.605
 50.969 c h
876.586 39.317 m 876.379 39.676 876.152 44.216 876.086 49.403 c 875.965
 58.841 l 881.781 58.606 l 885.012 58.473 887.422 58.04 887.199 57.633 c
 886.98 57.227 884.945 56.981 882.68 57.087 c 877.953 57.305 877.223 56.626
 877.961 52.696 c 878.48 49.93 878.484 49.93 882.555 50.149 c 885.262 50.294
 886.746 50.032 886.98 49.368 c 887.234 48.653 886.18 48.368 883.293 48.368
 c 878.727 48.368 878.031 47.63 877.672 42.368 c 877.438 38.962 877.188 
38.266 876.586 39.317 c h
905.914 41.368 m 905.93 42.798 905.672 47.567 905.34 51.966 c 904.918 57.501
 904.984 59.704 905.562 59.126 c 906.52 58.169 908.352 41.637 907.691 39.915
 c 906.902 37.868 905.879 38.704 905.914 41.368 c h
949.375 39.262 m 949.062 39.575 949.695 40.993 950.785 42.419 c 955.504
 48.61 957.074 57.016 953.988 59.579 c 952.68 60.665 948.758 59.993 947.852
 58.528 c 947.543 58.028 946.996 57.907 946.645 58.262 c 945.645 59.266 
949.523 61.969 951.965 61.969 c 958.117 61.969 959.125 52.637 953.879 44.216
 c 952.039 41.262 l 955.02 41.016 l 956.66 40.88 958 40.411 958 39.969 c
 958 39.048 950.223 38.411 949.375 39.262 c h
300 39.903 m 300 40.087 301.621 42.137 303.602 44.458 c 305.578 46.774 
307.199 48.966 307.199 49.321 c 307.199 49.676 307.602 49.969 308.094 49.969
 c 309.191 49.969 306.988 46.446 303.871 43.216 c 302.621 41.923 301.602
 40.575 301.602 40.216 c 301.602 39.86 301.238 39.571 300.801 39.571 c 300.359
 39.571 300 39.719 300 39.903 c h
915.199 40.286 m 915.199 40.723 916.457 42.45 917.996 44.126 c 920.352 
46.688 920.793 47.758 920.797 50.88 c 920.797 53.352 920.289 55.223 919.27
 56.481 c 917.734 58.368 l 915.668 56.43 l 914.137 54.993 913.602 54.805
 913.602 55.708 c 913.602 57.219 916.117 59.571 917.738 59.571 c 919.258
 59.571 921.059 57.493 922.254 54.368 c 923.488 51.145 922.328 46.415 919.605
 43.575 c 917.48 41.356 l 921.137 41.395 l 926.715 41.458 925.895 40.001
 920.199 39.731 c 917.266 39.591 915.199 39.821 915.199 40.286 c h
304.398 41.137 m 307.945 42.602 312.68 43.743 313.707 43.38 c 314.984 42.926
 306.895 40.344 304.453 40.423 c 302.824 40.477 302.824 40.489 304.398 41.137
 c h
19.555 49.883 m 19.605 56.012 19.402 55.661 27.645 63.915 c 30.312 66.587
 33.684 70.633 35.145 72.915 c 37.82 77.091 41.285 79.368 43.609 78.477 
c 44.289 78.216 46.188 78.508 47.824 79.126 c 52.352 80.833 60.691 82.27
 65.602 82.188 c 93.562 81.716 103.93 81.184 107.527 80.028 c 109.688 79.337
 112.438 78.77 113.637 78.77 c 116.145 78.77 117.453 78.118 125.34 72.938
 c 128.496 70.864 131.465 69.169 131.938 69.169 c 133.023 69.169 141.152
 61.255 140.613 60.716 c 140.395 60.497 138.988 61.399 137.496 62.723 c 
134.574 65.309 122.629 73.001 117.27 75.743 c 114.707 77.059 112.445 77.434
 106.801 77.481 c 94.602 77.591 78.113 76.962 75.801 76.305 c 73.746 75.723
 72.73 76.536 74.301 77.508 c 74.684 77.747 79.273 77.989 84.5 78.048 c 
89.727 78.11 96.52 78.395 99.602 78.688 c 105.199 79.216 l 97.602 79.801
 l 93.422 80.122 84.695 80.356 78.215 80.321 c 71.73 80.286 66.078 80.473
 65.652 80.735 c 64.66 81.352 50.922 78.973 47.02 77.512 c 45.379 76.899
 42.977 76.317 41.676 76.219 c 40.379 76.118 38.84 75.352 38.258 74.512 
c 34.422 68.973 27.965 61.407 26.336 60.536 c 23.68 59.122 20.664 54.282
 20.832 51.7 c 21.098 47.618 20.797 44.368 20.156 44.368 c 19.801 44.368
 19.531 46.852 19.555 49.883 c h
324.535 46.501 m 324.238 46.798 323.965 49.048 323.922 51.501 c 323.824
 56.946 322.992 60.376 322.117 58.962 c 321.781 58.415 321.078 57.981 320.555
 57.997 c 320.027 58.012 320.41 58.7 321.398 59.524 c 322.391 60.348 323.199
 61.848 323.199 62.856 c 323.199 63.981 323.48 64.395 323.926 63.93 c 324.66
 63.161 326.098 45.969 325.43 45.969 c 325.23 45.969 324.828 46.208 324.535
 46.501 c h
334.086 48.231 m 333.863 48.587 335.105 51.012 336.84 53.626 c 342.031 
61.43 341.922 65.782 336.559 64.801 c 335.199 64.555 334.512 64.704 334.809
 65.18 c 335.074 65.614 336.543 65.969 338.074 65.969 c 340.219 65.969 341.004
 65.563 341.516 64.176 c 342.258 62.169 341.477 58.735 339.629 55.872 c 
338.953 54.825 337.82 53.071 337.109 51.973 c 335.82 49.977 l 339.211 51.173
 l 343.203 52.583 343.199 52.583 343.199 51.633 c 343.199 51.227 342.031
 50.653 340.602 50.356 c 339.172 50.055 337.207 49.313 336.242 48.7 c 335.273
 48.087 334.305 47.88 334.086 48.231 c h
309.156 52.587 m 310.277 57.719 306.211 59.622 302.242 55.821 c 301.008
 54.637 300 54.071 300 54.563 c 300 56.059 304.086 58.77 306.348 58.77 c
 307.52 58.77 308.91 58.337 309.441 57.809 c 310.625 56.626 310.672 53.184
 309.523 51.571 c 308.867 50.645 308.781 50.88 309.156 52.587 c h
348.801 52.274 m 348.801 53.149 353.488 55.149 354.102 54.536 c 354.348
 54.29 353.453 53.52 352.113 52.829 c 349.316 51.383 348.801 51.294 348.801
 52.274 c h
119.199 55.571 m 119.199 56.008 119.559 56.368 120 56.368 c 120.441 56.368
 120.801 56.008 120.801 55.571 c 120.801 55.13 120.441 54.77 120 54.77 c
 119.559 54.77 119.199 55.13 119.199 55.571 c h
132.801 55.571 m 132.801 56.008 133.141 56.368 133.555 56.368 c 133.969
 56.368 134.527 56.008 134.801 55.571 c 135.07 55.13 134.734 54.77 134.047
 54.77 c 133.359 54.77 132.801 55.13 132.801 55.571 c h
355.508 55.969 m 357.086 60.11 355.156 61.688 351.148 59.54 c 350.297 59.087
 349.602 59.024 349.602 59.407 c 349.602 59.786 350.531 60.598 351.668 61.208
 c 352.805 61.813 354.242 63.294 354.863 64.489 c 355.848 66.395 355.832
 66.825 354.738 67.919 c 353.16 69.493 352.02 69.497 349.777 67.923 c 348.801
 67.239 348 66.985 348 67.364 c 348 68.782 350.004 69.969 352.398 69.969
 c 353.766 69.969 355.312 69.536 355.84 69.008 c 357.02 67.829 357.098 64.188
 355.965 63.055 c 355.387 62.477 355.512 61.907 356.367 61.196 c 357.996
 59.844 357.938 56.841 356.25 55.466 c 355.051 54.493 354.969 54.548 355.508
 55.969 c h
854.156 56.88 m 853.285 57.751 853.504 65.169 854.398 65.169 c 854.84 65.169
 855.215 65.079 855.23 64.969 c 855.957 60.153 855.996 58.622 855.414 57.583
 c 855.027 56.891 854.461 56.575 854.156 56.88 c h
850.086 59.235 m 849.352 61.145 849.504 65.169 850.309 65.169 c 851.117
 65.169 851.973 62.419 851.988 59.77 c 852 57.7 850.805 57.364 850.086 59.235
 c h
972.613 64.969 m 972.219 69.282 973.172 71.204 974.266 68.301 c 975.066
 66.18 974.59 61.169 973.59 61.169 c 973.242 61.169 972.805 62.88 972.613
 64.969 c h
976.527 65.344 m 976.012 69.723 977.02 72.204 978.406 69.962 c 979.008 
68.989 979.035 65.966 978.48 61.77 c 978.434 61.438 978.09 61.169 977.711
 61.169 c 977.332 61.169 976.801 63.048 976.527 65.344 c h
59.266 85.837 m 58.363 87.61 57.258 89.286 56.812 89.563 c 55.832 90.169
 55.734 91.571 56.672 91.571 c 57.539 91.571 61.895 83.598 61.336 83.036
 c 61.102 82.805 60.172 84.063 59.266 85.837 c h
827.199 84.231 m 827.199 84.696 827.957 86.36 828.883 87.93 c 829.809 89.501
 830.379 91.266 830.152 91.86 c 829.926 92.45 826.02 94.485 821.469 96.38
 c 816.922 98.278 812.84 100.094 812.398 100.415 c 811.961 100.739 807.641
 101.989 802.801 103.196 c 794.938 105.157 793.086 105.341 785.426 104.899
 c 780.707 104.63 773.75 103.645 769.965 102.716 c 766.18 101.782 762.996
 101.145 762.887 101.294 c 762.781 101.446 762.898 103.911 763.148 106.77
 c 763.602 111.969 l 767.602 113.395 l 771.039 114.618 773.512 114.762 785.199
 114.423 c 796.434 114.098 800.191 113.665 806.801 111.934 c 811.199 110.782
 816.203 109.493 817.922 109.071 c 819.637 108.653 824.051 107.059 827.73
 105.54 c 831.41 104.016 834.914 102.77 835.516 102.77 c 836.121 102.77 
837.418 104.751 838.398 107.169 c 839.383 109.591 840.453 111.571 840.777
 111.571 c 842.008 111.571 849.535 102.864 851.898 98.708 c 853.254 96.321
 856.152 92.411 858.332 90.012 c 860.516 87.618 862.156 85.423 861.98 85.137
 c 861.801 84.848 859.934 84.919 857.828 85.29 c 846.504 87.286 842.027 
87.059 829 83.829 c 827.984 83.579 827.199 83.751 827.199 84.231 c h
838.355 87.673 m 841.395 88.212 846.418 88.38 850.605 88.083 c 857.703 
87.579 l 856.09 89.844 l 855.199 91.091 853.918 92.575 853.238 93.137 c 
852.559 93.704 852 94.501 852 94.911 c 852 96.192 845.906 104.665 843.375
 106.903 c 840.961 109.04 l 838.859 104.36 l 836.758 99.676 l 832.98 101.29
 l 830.902 102.176 827.762 103.528 826 104.29 c 824.238 105.055 821.359 
106.098 819.602 106.61 c 817.84 107.118 813.934 108.262 810.918 109.153 
c 799.43 112.54 778.941 114.126 770.391 112.294 c 766.008 111.352 764.801
 109.825 764.801 105.223 c 764.801 102.985 l 770.199 104.501 l 781.238 107.598
 796.242 107.341 807.602 103.86 c 814.09 101.868 830.238 94.673 831.605 
93.165 c 832.758 91.891 832.715 91.512 831.074 88.735 c 829.281 85.7 l 831.242
 86.231 l 832.32 86.52 835.52 87.169 838.355 87.673 c h
227.199 85.829 m 227.199 86.298 227.957 87.962 228.883 89.532 c 229.809
 91.098 230.379 92.868 230.152 93.458 c 229.926 94.051 226.02 96.087 221.469
 97.981 c 216.922 99.876 212.84 101.692 212.398 102.016 c 211.961 102.341
 207.641 103.591 202.801 104.798 c 194.938 106.758 193.086 106.938 185.426
 106.501 c 180.707 106.231 173.75 105.247 169.965 104.313 c 166.18 103.383
 162.996 102.743 162.887 102.895 c 162.781 103.048 162.898 105.508 163.148
 108.368 c 163.602 113.571 l 167.602 114.993 l 171.039 116.219 173.512 116.364
 185.199 116.024 c 196.434 115.696 200.191 115.262 206.801 113.532 c 211.199
 112.38 216.203 111.094 217.922 110.673 c 219.637 110.251 224.051 108.661
 227.73 107.137 c 231.41 105.614 234.914 104.368 235.516 104.368 c 236.121
 104.368 237.418 106.348 238.398 108.77 c 239.383 111.188 240.453 113.169
 240.777 113.169 c 242.008 113.169 249.535 104.466 251.898 100.305 c 253.254
 97.923 256.152 94.008 258.332 91.614 c 260.516 89.219 262.156 87.024 261.98
 86.735 c 261.801 86.45 259.934 86.516 257.828 86.887 c 246.504 88.883 242.027
 88.657 229 85.43 c 227.984 85.176 227.199 85.352 227.199 85.829 c h
238.355 89.274 m 241.395 89.813 246.418 89.981 250.605 89.684 c 257.703
 89.18 l 256.09 91.446 l 255.199 92.692 253.918 94.173 253.238 94.739 c 
252.559 95.301 252 96.102 252 96.512 c 252 97.794 245.906 106.266 243.375
 108.505 c 240.961 110.637 l 236.758 101.278 l 232.98 102.891 l 230.902 
103.778 227.762 105.126 226 105.891 c 224.238 106.657 221.359 107.696 219.602
 108.208 c 217.84 108.719 213.934 109.864 210.918 110.751 c 199.43 114.137
 178.941 115.727 170.391 113.891 c 166.008 112.954 164.801 111.423 164.801
 106.825 c 164.801 104.583 l 170.199 106.098 l 181.238 109.2 196.242 108.942
 207.602 105.458 c 214.09 103.469 230.238 96.274 231.605 94.766 c 232.758
 93.489 232.715 93.114 231.074 90.337 c 229.281 87.301 l 231.242 87.829 
l 232.32 88.122 235.52 88.77 238.355 89.274 c h
417.602 85.829 m 417.602 86.298 418.355 87.962 419.281 89.532 c 420.207
 91.098 420.781 92.868 420.555 93.458 c 420.324 94.051 416.418 96.087 411.871
 97.981 c 407.32 99.876 403.238 101.692 402.801 102.016 c 402.359 102.341
 398.039 103.591 393.199 104.798 c 385.34 106.758 383.488 106.938 375.824
 106.501 c 371.105 106.231 364.148 105.247 360.363 104.313 c 356.578 103.383
 353.395 102.743 353.289 102.895 c 353.18 103.048 353.297 105.508 353.547
 108.368 c 354 113.571 l 358 114.993 l 361.438 116.219 363.91 116.364 375.602
 116.024 c 386.832 115.696 390.594 115.262 397.199 113.532 c 401.602 112.38
 406.605 111.094 408.32 110.673 c 410.035 110.251 414.449 108.661 418.129
 107.137 c 421.809 105.614 425.312 104.368 425.918 104.368 c 426.52 104.368
 427.816 106.348 428.801 108.77 c 429.781 111.188 430.852 113.169 431.176
 113.169 c 432.406 113.169 439.934 104.466 442.297 100.305 c 443.656 97.923
 446.551 94.008 448.734 91.614 c 450.918 89.219 452.559 87.024 452.379 86.735
 c 452.203 86.45 450.336 86.516 448.227 86.887 c 436.906 88.883 432.426 
88.657 419.398 85.43 c 418.387 85.176 417.602 85.352 417.602 85.829 c h
428.754 89.274 m 431.793 89.813 436.816 89.981 441.004 89.684 c 448.102
 89.18 l 446.488 91.446 l 445.602 92.692 444.316 94.173 443.637 94.739 c
 442.957 95.301 442.398 96.102 442.398 96.512 c 442.398 97.794 436.309 106.266
 433.773 108.505 c 431.359 110.637 l 429.258 105.958 l 427.16 101.278 l 
423.379 102.891 l 421.301 103.778 418.16 105.126 416.398 105.891 c 414.641
 106.657 411.762 107.696 410 108.208 c 408.238 108.719 404.332 109.864 401.316
 110.751 c 389.828 114.137 369.34 115.727 360.789 113.891 c 356.41 112.954
 355.199 111.423 355.199 106.825 c 355.199 104.583 l 360.602 106.098 l 371.641
 109.2 386.645 108.942 398 105.458 c 404.488 103.469 420.637 96.274 422.004
 94.766 c 423.156 93.489 423.113 93.114 421.473 90.337 c 419.684 87.301 
l 421.641 87.829 l 422.719 88.122 425.918 88.77 428.754 89.274 c h
608 85.829 m 608 86.298 608.758 87.962 609.684 89.532 c 610.609 91.098 
611.18 92.868 610.953 93.458 c 610.727 94.051 606.82 96.087 602.27 97.981
 c 597.723 99.876 593.641 101.692 593.199 102.016 c 592.762 102.341 588.441
 103.591 583.602 104.798 c 575.738 106.758 573.887 106.938 566.223 106.501
 c 561.508 106.231 554.551 105.247 550.766 104.313 c 546.98 103.383 543.793
 102.743 543.688 102.895 c 543.582 103.048 543.699 105.508 543.945 108.368
 c 544.398 113.571 l 548.398 114.993 l 551.836 116.219 554.312 116.364 566
 116.024 c 577.234 115.696 580.992 115.262 587.602 113.532 c 592 112.38 
597.004 111.094 598.719 110.673 c 600.438 110.251 604.852 108.661 608.531
 107.137 c 612.207 105.614 615.711 104.368 616.316 104.368 c 616.922 104.368
 618.219 106.348 619.199 108.77 c 620.184 111.188 621.25 113.169 621.578
 113.169 c 622.809 113.169 630.332 104.466 632.699 100.305 c 634.055 97.923
 636.949 94.008 639.133 91.614 c 641.316 89.219 642.957 87.024 642.781 86.735
 c 642.602 86.45 640.734 86.516 638.629 86.887 c 627.305 88.883 622.828 
88.657 609.801 85.43 c 608.785 85.176 608 85.352 608 85.829 c h
619.152 89.274 m 622.195 89.813 627.219 89.981 631.406 89.684 c 638.5 89.18
 l 636.887 91.446 l 636 92.692 634.719 94.173 634.039 94.739 c 633.355 95.301
 632.801 96.102 632.801 96.512 c 632.801 97.794 626.707 106.266 624.176 
108.505 c 621.762 110.637 l 617.559 101.278 l 613.781 102.891 l 611.699 
103.778 608.559 105.126 606.801 105.891 c 605.039 106.657 602.16 107.696
 600.398 108.208 c 598.641 108.719 594.734 109.864 591.719 110.751 c 580.227
 114.137 559.738 115.727 551.191 113.891 c 546.809 112.954 545.602 111.423
 545.602 106.825 c 545.602 104.583 l 551 106.098 l 562.039 109.2 577.043
 108.942 588.398 105.458 c 594.891 103.469 611.039 96.274 612.402 94.766
 c 613.559 93.489 613.512 93.114 611.875 90.337 c 610.082 87.301 l 612.043
 87.829 l 613.117 88.122 616.32 88.77 619.152 89.274 c h
197.598 131.563 m 198.449 133.723 199.68 136.766 200.332 138.329 c 201.152
 140.294 201.238 141.169 200.605 141.169 c 200.105 141.169 200.332 141.633
 201.109 142.204 c 202.723 143.383 207.707 154.391 208.473 158.466 c 209.191
 162.305 210.23 162.54 210.82 158.993 c 211.812 153.02 213.777 144.665 215.535
 138.934 c 216.523 135.723 217.031 132.911 216.668 132.688 c 216.027 132.294
 215.648 133.02 213.574 138.571 c 212.637 141.091 212.465 141.169 207.988
 141.169 c 203.371 141.169 l 200.684 134.79 l 197.738 127.79 194.969 124.895
 197.598 131.563 c h
212 144.54 m 212 147.173 209.383 155.258 208.949 153.969 c 208.727 153.309
 207.578 150.61 206.398 147.969 c 204.254 143.169 l 208.125 143.063 l 211.488
 142.973 212 143.169 212 144.54 c h
790.898 129.36 m 789.648 130.305 789.555 130.79 790.328 132.231 c 791.52
 134.462 792.031 134.438 791.789 132.169 c 791.617 130.516 791.93 130.368
 795.602 130.368 c 798.766 130.368 799.531 130.622 799.281 131.571 c 798.387
 134.915 795.273 151.407 795.238 152.969 c 795.215 154.016 795.68 154.77
 796.348 154.77 c 797.066 154.77 797.488 153.954 797.477 152.571 c 797.457
 150.286 800.547 131.555 801.02 131.083 c 801.531 130.575 807.605 132.551
 811.344 134.446 c 820.684 139.173 819.402 146.227 808.109 152.247 c 804.477
 154.184 801.984 154.88 797.48 155.219 c 790.562 155.739 788.617 154.958
 790.254 152.317 c 791.617 150.118 790.746 149.204 789.219 151.227 c 783.348
 158.989 800.656 159.161 812.121 151.458 c 817.383 147.919 820.398 143.657
 819.672 140.774 c 818.867 137.563 813.809 133.387 808.055 131.188 c 801.348
 128.626 793.039 127.743 790.898 129.36 c h
390.855 131.227 m 389.426 132.657 389.219 134.438 390.398 135.169 c 390.84
 135.442 391.195 138.434 391.191 141.817 c 391.176 152.79 389.859 156.344
 387.527 151.712 c 386.648 149.962 385.602 150.161 385.602 152.075 c 385.602
 153.766 391.336 157.169 394.188 157.169 c 396.848 157.169 400 154.883 400
 152.95 c 400 152.391 398.922 150.626 397.605 149.028 c 395.812 146.856 
395.562 146.208 396.605 146.458 c 398.957 147.024 402.613 145.591 404.184
 143.481 c 406.102 140.919 405.215 138.317 401.172 134.626 c 395.969 129.88
 393.137 128.946 390.855 131.227 c h
396.641 132.696 m 399.363 134.122 402.867 137.856 403.52 140.036 c 404.266
 142.512 401.527 144.536 396.809 144.989 c 392.801 145.372 l 392.801 139.735
 l 392.801 136.637 392.582 133.532 392.312 132.837 c 391.695 131.223 393.699
 131.161 396.641 132.696 c h
395.375 148.169 m 399.176 152.528 398.734 155.571 394.301 155.571 c 391.801
 155.571 391.473 154.415 392.5 149.27 c 393.07 146.411 393.648 146.192 395.375
 148.169 c h
576.246 131.899 m 573.141 134.567 573.18 139.145 576.363 145.426 c 578.391
 149.434 580.172 151.446 585.367 155.598 c 587.027 156.923 589.465 156.458
 590.02 154.708 c 590.582 152.942 589.629 151.278 589.023 152.969 c 587.98
 155.891 582.168 152.192 578.828 146.485 c 575.078 140.071 574.914 135.348
 578.344 132.54 c 579.602 131.505 587.258 131.673 592.199 132.837 c 593.477
 133.137 594.398 133.02 594.398 132.559 c 594.398 131.403 588.016 129.969
 582.891 129.969 c 579.391 129.969 578.027 130.364 576.246 131.899 c h
58.398 169.997 m 53.781 170.231 38.75 170.387 25 170.344 c 11.25 170.301
 0 170.516 0 170.821 c 0 171.512 10.117 171.751 34.398 171.63 c 113 171.247
 149.598 171.227 149.598 171.571 c 149.602 171.79 151.852 171.829 154.602
 171.657 c 162.105 171.188 263.195 171.106 263.199 171.571 c 263.199 171.79
 265.449 171.825 268.199 171.645 c 275.551 171.169 357.598 171.098 357.598
 171.571 c 357.598 171.79 359.852 171.829 362.602 171.657 c 370.195 171.184
 471.195 171.11 471.199 171.579 c 471.199 171.801 473.629 171.856 476.602
 171.692 c 490.031 170.958 683.191 171.591 683.195 172.368 c 683.195 172.591
 685.449 172.641 688.199 172.485 c 696.273 172.032 796.797 171.93 796.797
 172.38 c 796.797 172.602 799.23 172.645 802.199 172.473 c 805.172 172.298
 850.98 172.153 904 172.149 c 957.02 172.141 998.422 171.864 996 171.532
 c 990.82 170.821 917.293 170.251 878.398 170.622 c 872.898 170.676 808.82
 170.493 736 170.223 c 663.18 169.95 594.238 169.739 582.801 169.755 c 571.359
 169.77 553.359 169.77 542.801 169.758 c 532.238 169.743 514.238 169.739
 502.801 169.747 c 491.359 169.755 465.801 169.758 446 169.751 c 426.199
 169.743 400.641 169.743 389.199 169.755 c 377.762 169.762 356.52 169.762
 342 169.755 c 327.48 169.743 306.238 169.743 294.801 169.751 c 283.359 
169.758 257.801 169.758 238 169.751 c 218.199 169.743 192.641 169.743 181.199
 169.751 c 163.016 169.762 138.488 169.727 81.602 169.602 c 73.461 169.583
 63.02 169.762 58.398 169.993 c h
f
Q Q
showpage
%%Trailer
end restore
%%EOF
