digraph {
N0 [label="I"]
N1 [label="I"]
N2 [label="I"]
N3 [label="I"]
N7 [label="H"]
N0 -> N7 [label="24.48"]
N1 -> N7 [label="1.63"]
N2 -> N7 [label="-25.77"]
N3 -> N7 [label="-19.69"]
N8 [label="H"]
N0 -> N8 [label="0.95"]
N1 -> N8 [label="2.57"]
N2 -> N8 [label="-4.40"]
N3 -> N8 [label="-1.90"]
N9 [label="H"]
N0 -> N9 [label="-5.45"]
N1 -> N9 [label="-25.66"]
N2 -> N9 [label="19.54"]
N3 -> N9 [label="9.39"]
N4 [label="O"]
N7 -> N4 [label="-6.96"]
N8 -> N4 [label="-2.10"]
N9 -> N4 [label="5.60"]
N5 [label="O"]
N7 -> N5 [label="-7.49"]
N8 -> N5 [label="12.25"]
N9 -> N5 [label="-11.37"]
N6 [label="O"]
N7 -> N6 [label="6.68"]
N8 -> N6 [label="-11.37"]
N9 -> N6 [label="-5.36"]
}
