<?xml version="1.0" encoding="UTF-8" standalone="no"?>
<!-- Created with Inkscape (http://www.inkscape.org/) -->

<svg
   xmlns:dc="http://purl.org/dc/elements/1.1/"
   xmlns:cc="http://creativecommons.org/ns#"
   xmlns:rdf="http://www.w3.org/1999/02/22-rdf-syntax-ns#"
   xmlns:svg="http://www.w3.org/2000/svg"
   xmlns="http://www.w3.org/2000/svg"
   xmlns:sodipodi="http://sodipodi.sourceforge.net/DTD/sodipodi-0.dtd"
   xmlns:inkscape="http://www.inkscape.org/namespaces/inkscape"
   width="744.09448819"
   height="1052.3622047"
   id="svg2"
   version="1.1"
   inkscape:version="0.48.4 r9939"
   sodipodi:docname="nearestneighbourpixel.svg">
  <defs
     id="defs4" />
  <sodipodi:namedview
     id="base"
     pagecolor="#ffffff"
     bordercolor="#666666"
     borderopacity="1.0"
     inkscape:pageopacity="0.0"
     inkscape:pageshadow="2"
     inkscape:zoom="1.979899"
     inkscape:cx="381.39439"
     inkscape:cy="259.50515"
     inkscape:document-units="px"
     inkscape:current-layer="layer1"
     showgrid="false"
     inkscape:window-width="1366"
     inkscape:window-height="706"
     inkscape:window-x="-8"
     inkscape:window-y="-8"
     inkscape:window-maximized="1" />
  <metadata
     id="metadata7">
    <rdf:RDF>
      <cc:Work
         rdf:about="">
        <dc:format>image/svg+xml</dc:format>
        <dc:type
           rdf:resource="http://purl.org/dc/dcmitype/StillImage" />
        <dc:title />
      </cc:Work>
    </rdf:RDF>
  </metadata>
  <g
     inkscape:label="Layer 1"
     inkscape:groupmode="layer"
     id="layer1">
    <rect
       style="fill:#ff0000;fill-opacity:0.49019608;stroke:none"
       id="rect3983-4-0-2-5"
       width="29.285629"
       height="29.642839"
       x="452.50003"
       y="318.96933" />
    <rect
       style="fill:#ff0000;fill-opacity:0.49019608;stroke:none"
       id="rect3983-4-0-2-3"
       width="29.285629"
       height="29.642839"
       x="452.85718"
       y="289.32648" />
    <rect
       style="fill:#ff0000;fill-opacity:0.49019608;stroke:none"
       id="rect3983-4-0-2-2"
       width="29.285629"
       height="29.642839"
       x="423.12769"
       y="318.96933" />
    <rect
       style="fill:#ff0000;fill-opacity:0.49019608;stroke:none"
       id="rect3983-4-0-2-01"
       width="29.285629"
       height="29.642839"
       x="392.85718"
       y="318.96933" />
    <rect
       style="fill:#ff0000;fill-opacity:0.49019608;stroke:none"
       id="rect3983-4-0-2-8"
       width="29.285629"
       height="29.642839"
       x="392.85718"
       y="258.25504" />
    <rect
       style="fill:#000000;fill-opacity:1;stroke:none"
       id="rect3983"
       width="29.285629"
       height="29.642839"
       x="393.07141"
       y="288.43362" />
    <rect
       style="fill:#000000;fill-opacity:1;stroke:none"
       id="rect3983-98"
       width="29.285629"
       height="29.642839"
       x="423.73798"
       y="259.7233" />
    <rect
       style="fill:#000000;fill-opacity:1;stroke:none"
       id="rect3983-6"
       width="29.285629"
       height="29.642839"
       x="454.0426"
       y="259.7233" />
    <rect
       style="fill:#000000;fill-opacity:1;stroke:none"
       id="rect3983-5"
       width="29.285629"
       height="29.642839"
       x="484.07434"
       y="258.71317" />
    <rect
       style="fill:#000000;fill-opacity:1;stroke:none"
       id="rect3983-0"
       width="29.285629"
       height="29.642839"
       x="512.63141"
       y="258.71317" />
    <rect
       style="fill:#000000;fill-opacity:1;stroke:none"
       id="rect3983-1"
       width="29.285629"
       height="29.642839"
       x="513.6416"
       y="408.21573" />
    <rect
       style="fill:#000000;fill-opacity:1;stroke:none"
       id="rect3983-38"
       width="29.285629"
       height="29.642839"
       x="483.73511"
       y="408.21573" />
    <rect
       style="fill:#000000;fill-opacity:1;stroke:none"
       id="rect3983-93"
       width="29.285629"
       height="29.642839"
       x="454.0426"
       y="439.82632" />
    <rect
       style="fill:#000000;fill-opacity:1;stroke:none"
       id="rect3983-44"
       width="29.285629"
       height="29.642839"
       x="423.3988"
       y="438.93872" />
    <rect
       style="fill:#000000;fill-opacity:1;stroke:none"
       id="rect3983-606"
       width="29.285629"
       height="29.642839"
       x="393.11725"
       y="438.93872" />
    <rect
       style="fill:#000000;fill-opacity:1;stroke:none"
       id="rect3983-601"
       width="29.285629"
       height="29.642839"
       x="393.43341"
       y="348.61673" />
    <rect
       style="fill:#000000;fill-opacity:1;stroke:none"
       id="rect3983-65"
       width="29.285629"
       height="29.642839"
       x="393.43341"
       y="378.41623" />
    <rect
       style="fill:#000000;fill-opacity:1;stroke:none"
       id="rect3983-75"
       width="29.285629"
       height="29.642839"
       x="452.90985"
       y="349.74942" />
    <rect
       style="fill:#000000;fill-opacity:1;stroke:none"
       id="rect3983-41"
       width="29.285629"
       height="29.642839"
       x="483.75537"
       y="319.14899" />
    <rect
       style="fill:#000000;fill-opacity:1;stroke:none"
       id="rect3983-20"
       width="29.285629"
       height="29.642839"
       x="513.7641"
       y="349.33102" />
    <rect
       style="fill:#000000;fill-opacity:1;stroke:none"
       id="rect3983-28"
       width="29.285629"
       height="29.642839"
       x="542.91565"
       y="258.71317" />
    <rect
       style="fill:#000000;fill-opacity:1;stroke:none"
       id="rect3983-60"
       width="29.285629"
       height="29.642839"
       x="573.2406"
       y="258.71317" />
    <rect
       style="fill:#000000;fill-opacity:1;stroke:none"
       id="rect3983-24"
       width="29.285629"
       height="29.642839"
       x="573.2406"
       y="289.60947" />
    <rect
       style="fill:#000000;fill-opacity:1;stroke:none"
       id="rect3983-86"
       width="29.285629"
       height="29.642839"
       x="572.75574"
       y="319.3223" />
    <rect
       style="fill:#000000;fill-opacity:1;stroke:none"
       id="rect3983-50"
       width="29.285629"
       height="29.642839"
       x="573.74561"
       y="349.62689" />
    <rect
       style="fill:#000000;fill-opacity:1;stroke:none"
       id="rect3983-90"
       width="29.285629"
       height="29.642839"
       x="573.2406"
       y="378.9213" />
    <rect
       style="fill:#000000;fill-opacity:1;stroke:none"
       id="rect3983-06"
       width="29.285629"
       height="29.642839"
       x="543.35437"
       y="408.21573" />
    <rect
       style="fill:#000000;fill-opacity:1;stroke:none"
       id="rect3983-3"
       width="29.285629"
       height="29.642839"
       x="362.83298"
       y="289.01773" />
    <rect
       style="fill:#000000;fill-opacity:1;stroke:none"
       id="rect3983-8"
       width="29.285629"
       height="29.642839"
       x="333.24268"
       y="289.01773" />
    <rect
       style="fill:#000000;fill-opacity:1;stroke:none"
       id="rect3983-7"
       width="29.285629"
       height="29.642839"
       x="302.93811"
       y="288.59933" />
    <rect
       style="fill:#000000;fill-opacity:1;stroke:none"
       id="rect3983-4"
       width="29.285629"
       height="29.642839"
       x="273.22525"
       y="319.44485" />
    <rect
       style="fill:#000000;fill-opacity:1;stroke:none"
       id="rect3983-2"
       width="29.285629"
       height="29.642839"
       x="243.33911"
       y="318.73056" />
    <rect
       style="fill:#000000;fill-opacity:1;stroke:none"
       id="rect3983-77"
       width="29.285629"
       height="29.642839"
       x="212.9939"
       y="318.73056" />
    <rect
       style="fill:#000000;fill-opacity:1;stroke:none"
       id="rect3983-9"
       width="29.285629"
       height="29.642839"
       x="183.74011"
       y="319.44485" />
    <rect
       style="fill:#000000;fill-opacity:1;stroke:none"
       id="rect3983-31"
       width="29.285629"
       height="29.642839"
       x="154.00696"
       y="319.3223" />
    <rect
       style="fill:#000000;fill-opacity:1;stroke:none"
       id="rect3983-61"
       width="29.285629"
       height="29.642839"
       x="363.54724"
       y="438.5" />
    <rect
       style="fill:#000000;fill-opacity:1;stroke:none"
       id="rect3983-84"
       width="29.285629"
       height="29.642839"
       x="333.81409"
       y="469.05713" />
    <rect
       style="fill:#000000;fill-opacity:1;stroke:none"
       id="rect3983-96"
       width="29.285629"
       height="29.642839"
       x="303.80542"
       y="468.8046" />
    <rect
       style="fill:#000000;fill-opacity:1;stroke:none"
       id="rect3983-37"
       width="29.285629"
       height="29.642839"
       x="273.62335"
       y="468.31979" />
    <rect
       style="fill:#000000;fill-opacity:1;stroke:none"
       id="rect3983-88"
       width="29.285629"
       height="29.642839"
       x="242.85974"
       y="468.57236" />
    <rect
       style="fill:#000000;fill-opacity:1;stroke:none"
       id="rect3983-29"
       width="29.285629"
       height="29.642839"
       x="213.74881"
       y="468.80457" />
    <rect
       style="fill:#000000;fill-opacity:1;stroke:none"
       id="rect3983-13"
       width="29.285629"
       height="29.642839"
       x="183.59451"
       y="468.57236" />
    <rect
       style="fill:#000000;fill-opacity:1;stroke:none"
       id="rect3983-59"
       width="29.285629"
       height="29.642839"
       x="153.41522"
       y="439.65302" />
    <rect
       style="fill:#000000;fill-opacity:1;stroke:none"
       id="rect3983-840"
       width="29.285629"
       height="29.642839"
       x="154.02725"
       y="408.21573" />
    <rect
       style="fill:#000000;fill-opacity:1;stroke:none"
       id="rect3983-76"
       width="29.285629"
       height="29.642839"
       x="152.9968"
       y="379.93146" />
    <rect
       style="fill:#000000;fill-opacity:1;stroke:none"
       id="rect3983-36"
       width="29.285629"
       height="29.642839"
       x="152.9968"
       y="348.32086" />
    <rect
       style="fill:#000000;fill-opacity:1;stroke:none"
       id="rect3983-15"
       width="29.285629"
       height="29.642839"
       x="212.61609"
       y="408.21573" />
    <rect
       style="fill:#000000;fill-opacity:1;stroke:none"
       id="rect3983-42"
       width="29.285629"
       height="29.642839"
       x="242.92068"
       y="378.66879" />
    <rect
       style="fill:#000000;fill-opacity:1;stroke:none"
       id="rect3983-09"
       width="29.285629"
       height="29.642839"
       x="303.11139"
       y="379.21716" />
    <rect
       style="fill:#000000;fill-opacity:1;stroke:none"
       id="rect3983-73"
       width="29.285629"
       height="29.642839"
       x="303.70316"
       y="409.22589" />
    <rect
       style="fill:#000000;fill-opacity:1;stroke:none"
       id="rect3983-72"
       width="29.285629"
       height="29.642839"
       x="334.08694"
       y="378.66879" />
    <rect
       style="fill:#0067ff;fill-opacity:0.49019608;stroke:none"
       id="rect3983-4-0-73"
       width="29.285629"
       height="29.642839"
       x="423.07147"
       y="288.25504" />
    <rect
       style="fill:#ff0000;fill-opacity:0.49019608;stroke:none"
       id="rect3983-4-0-18"
       width="29.285629"
       height="29.642839"
       x="393.78577"
       y="288.25504" />
    <rect
       style="fill:#ff0000;fill-opacity:0.49019608;stroke:none"
       id="rect3983-4-0-2"
       width="29.285629"
       height="29.642839"
       x="453.78577"
       y="258.25507" />
    <path
       style="fill:#808080;stroke:#787878;stroke-width:1.99999988;stroke-linecap:butt;stroke-linejoin:miter;stroke-miterlimit:4;stroke-opacity:1;stroke-dasharray:none"
       d="m 153,528.79075 450.21025,0"
       id="path3780-9-2"
       inkscape:connector-curvature="0" />
    <path
       style="fill:#808080;stroke:#787878;stroke-width:1.99999988;stroke-linecap:butt;stroke-linejoin:miter;stroke-miterlimit:4;stroke-opacity:1;stroke-dasharray:none"
       d="m 153,498.79075 450.21025,0"
       id="path3780-7-48-3"
       inkscape:connector-curvature="0" />
    <path
       style="fill:#808080;stroke:#787878;stroke-width:1.99999988;stroke-linecap:butt;stroke-linejoin:miter;stroke-miterlimit:4;stroke-opacity:1;stroke-dasharray:none"
       d="m 153,468.79075 450.21025,0"
       id="path3780-7-4-8-2"
       inkscape:connector-curvature="0" />
    <path
       style="fill:#808080;stroke:#787878;stroke-width:1.99999988;stroke-linecap:butt;stroke-linejoin:miter;stroke-miterlimit:4;stroke-opacity:1;stroke-dasharray:none"
       d="m 153,438.79075 450.21025,0"
       id="path3780-7-4-0-2-2"
       inkscape:connector-curvature="0" />
    <path
       style="fill:#808080;stroke:#787878;stroke-width:1.99999988;stroke-linecap:butt;stroke-linejoin:miter;stroke-miterlimit:4;stroke-opacity:1;stroke-dasharray:none"
       d="m 153,408.79075 450.21024,0"
       id="path3780-4-1"
       inkscape:connector-curvature="0" />
    <path
       style="fill:#808080;stroke:#787878;stroke-width:1.99999988;stroke-linecap:butt;stroke-linejoin:miter;stroke-miterlimit:4;stroke-opacity:1;stroke-dasharray:none"
       d="m 153,378.79076 450.21025,0"
       id="path3780-7-5-6"
       inkscape:connector-curvature="0" />
    <path
       style="fill:#808080;stroke:#787878;stroke-width:1.99999988;stroke-linecap:butt;stroke-linejoin:miter;stroke-miterlimit:4;stroke-opacity:1;stroke-dasharray:none"
       d="m 153,348.79076 450.21025,0"
       id="path3780-7-4-5-8"
       inkscape:connector-curvature="0" />
    <path
       style="fill:#808080;stroke:#787878;stroke-width:1.99999988;stroke-linecap:butt;stroke-linejoin:miter;stroke-miterlimit:4;stroke-opacity:1;stroke-dasharray:none"
       d="m 153,318.79076 450.21024,0"
       id="path3780-7-4-0-1-5"
       inkscape:connector-curvature="0" />
    <path
       style="fill:#808080;stroke:#787878;stroke-width:1.99999988;stroke-linecap:butt;stroke-linejoin:miter;stroke-miterlimit:4;stroke-opacity:1;stroke-dasharray:none"
       d="m 153,288.79076 450.21024,0"
       id="path3780-9-7-7"
       inkscape:connector-curvature="0" />
    <path
       style="fill:#808080;stroke:#787878;stroke-width:1.99999988;stroke-linecap:butt;stroke-linejoin:miter;stroke-miterlimit:4;stroke-opacity:1;stroke-dasharray:none"
       d="m 153,258.79076 450.21025,0"
       id="path3780-7-48-1-6"
       inkscape:connector-curvature="0" />
    <path
       style="fill:#808080;stroke:#787878;stroke-width:1.99999988;stroke-linecap:butt;stroke-linejoin:miter;stroke-miterlimit:4;stroke-opacity:1;stroke-dasharray:none"
       d="m 153,228.79076 450.21025,0"
       id="path3780-7-4-8-1-1"
       inkscape:connector-curvature="0" />
    <path
       style="fill:#808080;stroke:#787878;stroke-width:1.99999988;stroke-linecap:butt;stroke-linejoin:miter;stroke-miterlimit:4;stroke-opacity:1;stroke-dasharray:none"
       d="m 153,198.79076 450.21024,0"
       id="path3780-7-4-0-2-5-8"
       inkscape:connector-curvature="0" />
    <path
       style="fill:none;stroke:#787878;stroke-width:1.99999988;stroke-linecap:butt;stroke-linejoin:miter;stroke-miterlimit:4;stroke-opacity:1;stroke-dasharray:none"
       d="m 153,198.79076 0,329.28571"
       id="path3780"
       inkscape:connector-curvature="0" />
    <path
       style="fill:none;stroke:#787878;stroke-width:1.99999988;stroke-linecap:butt;stroke-linejoin:miter;stroke-miterlimit:4;stroke-opacity:1;stroke-dasharray:none"
       d="m 183,198.79076 0,329.28571"
       id="path3780-7"
       inkscape:connector-curvature="0" />
    <path
       style="fill:none;stroke:#787878;stroke-width:1.99999988;stroke-linecap:butt;stroke-linejoin:miter;stroke-miterlimit:4;stroke-opacity:1;stroke-dasharray:none"
       d="m 213,198.79076 0,329.28571"
       id="path3780-7-4"
       inkscape:connector-curvature="0" />
    <path
       style="fill:none;stroke:#787878;stroke-width:1.99999988;stroke-linecap:butt;stroke-linejoin:miter;stroke-miterlimit:4;stroke-opacity:1;stroke-dasharray:none"
       d="m 243,198.79076 0,329.28571"
       id="path3780-7-4-0"
       inkscape:connector-curvature="0" />
    <path
       style="fill:none;stroke:#787878;stroke-width:1.99999988;stroke-linecap:butt;stroke-linejoin:miter;stroke-miterlimit:4;stroke-opacity:1;stroke-dasharray:none"
       d="m 273,198.79077 0,329.2857"
       id="path3780-9"
       inkscape:connector-curvature="0" />
    <path
       style="fill:none;stroke:#787878;stroke-width:1.99999988;stroke-linecap:butt;stroke-linejoin:miter;stroke-miterlimit:4;stroke-opacity:1;stroke-dasharray:none"
       d="m 303,198.79076 0,329.28571"
       id="path3780-7-48"
       inkscape:connector-curvature="0" />
    <path
       style="fill:none;stroke:#787878;stroke-width:1.99999988;stroke-linecap:butt;stroke-linejoin:miter;stroke-miterlimit:4;stroke-opacity:1;stroke-dasharray:none"
       d="m 333,198.79076 0,329.28571"
       id="path3780-7-4-8"
       inkscape:connector-curvature="0" />
    <path
       style="fill:none;stroke:#787878;stroke-width:1.99999988;stroke-linecap:butt;stroke-linejoin:miter;stroke-miterlimit:4;stroke-opacity:1;stroke-dasharray:none"
       d="m 363,198.79077 0,329.2857"
       id="path3780-7-4-0-2"
       inkscape:connector-curvature="0" />
    <path
       style="fill:none;stroke:#787878;stroke-width:1.99999988;stroke-linecap:butt;stroke-linejoin:miter;stroke-miterlimit:4;stroke-opacity:1;stroke-dasharray:none"
       d="m 393,198.79077 0,329.2857"
       id="path3780-4"
       inkscape:connector-curvature="0" />
    <path
       style="fill:none;stroke:#787878;stroke-width:1.99999988;stroke-linecap:butt;stroke-linejoin:miter;stroke-miterlimit:4;stroke-opacity:1;stroke-dasharray:none"
       d="m 422.99999,198.79076 0,329.28571"
       id="path3780-7-5"
       inkscape:connector-curvature="0" />
    <path
       style="fill:none;stroke:#787878;stroke-width:1.99999988;stroke-linecap:butt;stroke-linejoin:miter;stroke-miterlimit:4;stroke-opacity:1;stroke-dasharray:none"
       d="m 452.99999,198.79076 0,329.28571"
       id="path3780-7-4-5"
       inkscape:connector-curvature="0" />
    <path
       style="fill:none;stroke:#787878;stroke-width:1.99999988;stroke-linecap:butt;stroke-linejoin:miter;stroke-miterlimit:4;stroke-opacity:1;stroke-dasharray:none"
       d="m 482.99999,198.79077 0,329.2857"
       id="path3780-7-4-0-1"
       inkscape:connector-curvature="0" />
    <path
       style="fill:none;stroke:#787878;stroke-width:1.99999988;stroke-linecap:butt;stroke-linejoin:miter;stroke-miterlimit:4;stroke-opacity:1;stroke-dasharray:none"
       d="m 512.99999,198.79077 0,329.2857"
       id="path3780-9-7"
       inkscape:connector-curvature="0" />
    <path
       style="fill:none;stroke:#787878;stroke-width:1.99999988;stroke-linecap:butt;stroke-linejoin:miter;stroke-miterlimit:4;stroke-opacity:1;stroke-dasharray:none"
       d="m 542.99999,198.79076 0,329.28571"
       id="path3780-7-48-1"
       inkscape:connector-curvature="0" />
    <path
       style="fill:none;stroke:#787878;stroke-width:1.99999988;stroke-linecap:butt;stroke-linejoin:miter;stroke-miterlimit:4;stroke-opacity:1;stroke-dasharray:none"
       d="m 572.99999,198.79076 0,329.28571"
       id="path3780-7-4-8-1"
       inkscape:connector-curvature="0" />
    <path
       style="fill:none;stroke:#787878;stroke-width:1.99999988;stroke-linecap:butt;stroke-linejoin:miter;stroke-miterlimit:4;stroke-opacity:1;stroke-dasharray:none"
       d="m 602.99999,198.79077 0,329.2857"
       id="path3780-7-4-0-2-5"
       inkscape:connector-curvature="0" />
    <rect
       style="fill:#ff0000;fill-opacity:0.49019608;stroke:none"
       id="rect3983-4-0-2-0"
       width="29.285629"
       height="29.642839"
       x="423.21432"
       y="258.96933" />
    <path
       style="fill:none;stroke:#0067ff;stroke-width:4;stroke-linecap:butt;stroke-linejoin:miter;stroke-opacity:1;stroke-miterlimit:4;stroke-dasharray:none"
       d="M 113.13709,347.27571 652.55854,254.34167"
       id="path4555"
       inkscape:connector-curvature="0"
       sodipodi:nodetypes="cc" />
    <path
       sodipodi:type="arc"
       style="fill:#0067ff;fill-opacity:1;stroke:none"
       id="path4557"
       sodipodi:cx="61.619305"
       sodipodi:cy="207.87465"
       sodipodi:rx="7.0710678"
       sodipodi:ry="7.0710678"
       d="m 68.690372,207.87465 a 7.0710678,7.0710678 0 1 1 -14.142135,0 7.0710678,7.0710678 0 1 1 14.142135,0 z"
       transform="translate(376.7869,82.832509)" />
  </g>
</svg>
